
----------../modules/database/controllers/order/simpan----------
admin - Tanggal/Waktu : 01-Nov-2021/19:54:20 PM => 
 --> 
    SELECT * 
    FROM `order` 
    WHERE `no_order` 
    LIKE '%OR21NOV%' 
    ESCAPE '!' 
    ORDER     BY `id` 
    DESC     LIMIT 1000
 --> Execution Time: 0.00070381164550781, Seconds : 0.70381164550781
admin - Tanggal/Waktu : 01-Nov-2021/19:54:20 PM => 
 --> 
    INSERT     INTO `order` ( `no_order`, `pembeli`, `potongan`, `metode_bayar`, `pot_faktur`, `tanggal_faktur`, `total`, `createddate`, `createdby`)  
    VALUES ( 'OR21NOV001', '1', '3', '1', '0', '2021-11-01 19:54:20', '10000', '2021-11-01 19:54:20', '3') 
 --> Execution Time: 0.0010881423950195, Seconds : 1.0881423950195
admin - Tanggal/Waktu : 01-Nov-2021/19:54:20 PM => 
 --> 
    INSERT     INTO `order_product` ( `order`, `product_satuan`, `qty`, `sub_total`, `createddate`, `createdby`)  
    VALUES ( 10, '2511', '1', '10000', '2021-11-01 19:54:20', '3') 
 --> Execution Time: 0.0037288665771484, Seconds : 3.7288665771484
admin - Tanggal/Waktu : 01-Nov-2021/19:54:20 PM => 
 --> 
    INSERT     INTO `order_status` ( `order`, `status`, `createddate`, `createdby`)  
    VALUES ( 10, 'DRAFT', '2021-11-01 19:54:20', '3') 
 --> Execution Time: 0.00061798095703125, Seconds : 0.61798095703125
