
----------../modules/template/controllers/order/add----------
administrator - Tanggal/Waktu : 07-Aug-2021/09:02:19 AM => 
 --> 
    SELECT `ps`.*, `p`.`product` as `nama_product`, `s`.`nama_satuan`, `pst`.`stock`, `p`.`kode_product` 
    FROM `product_satuan` `ps` 
    JOIN `product` `p` ON `ps`.`product` = `p`.`id` 
    LEFT     JOIN `satuan` `s` ON `ps`.`satuan` = `s`.`id` 
    JOIN `product_stock` `pst` ON `p`.`id` = `pst`.`product` 
    WHERE `ps`.`deleted` =0 
    OR `ps`.`deleted` 
    IS     NULL     LIMIT 1000
 --> Execution Time: 0.0013561248779297, Seconds : 1.3561248779297
administrator - Tanggal/Waktu : 07-Aug-2021/09:02:19 AM => 
 --> 
    SELECT `p`.* 
    FROM `pembeli` `p` 
    WHERE `p`.`deleted` =0 
    OR `p`.`deleted` 
    IS     NULL     AND `p`.`pembeli_kategori` = 2 
    LIMIT 1000
 --> Execution Time: 0.00071883201599121, Seconds : 0.71883201599121
administrator - Tanggal/Waktu : 07-Aug-2021/09:02:19 AM => 
 --> 
    SELECT * 
    FROM `metode_bayar` 
    LIMIT 1000
 --> Execution Time: 0.0004429817199707, Seconds : 0.4429817199707
administrator - Tanggal/Waktu : 07-Aug-2021/09:02:19 AM => 
 --> 
    SELECT `p`.* 
    FROM `pajak` `p` 
    WHERE `p`.`deleted` =0 
    OR `p`.`deleted` 
    IS     NULL     LIMIT 1000
 --> Execution Time: 0.00068283081054688, Seconds : 0.68283081054688
administrator - Tanggal/Waktu : 07-Aug-2021/09:02:19 AM => 
 --> 
    SELECT * 
    FROM `potongan` 
    ORDER     BY `id` 
    DESC     LIMIT 1000
 --> Execution Time: 0.00042200088500977, Seconds : 0.42200088500977
administrator - Tanggal/Waktu : 07-Aug-2021/09:02:19 AM => 
 --> 
    SELECT p.* , ps.stock 
    FROM product p 
    LEFT     JOIN ( 
    SELECT max( id)  id, product 
    FROM product_stock 
    GROUP     BY product)  ps_max on ps_max.product = p.id 
    LEFT     JOIN product_stock ps on ps.id = ps_max.id 
    LEFT     JOIN product_satuan pst on ps.product_satuan = pst.id 
    LEFT     JOIN satuan s on s.id = pst.satuan 
    WHERE p.deleted = 0 
    AND s.nama_satuan = 'PCS'
 --> Execution Time: 0.0014758110046387, Seconds : 1.4758110046387
administrator - Tanggal/Waktu : 07-Aug-2021/09:02:19 AM => 
 --> 
    SELECT * 
    FROM `general` 
    LIMIT 1000
 --> Execution Time: 0.00039792060852051, Seconds : 0.39792060852051
administrator - Tanggal/Waktu : 07-Aug-2021/09:02:19 AM => 
 --> 
    SELECT i.* 
    FROM invoice i 
    JOIN ( 
    SELECT max( id)  id, invoice 
    FROM invoice_status 
    GROUP     BY invoice)  iss on iss.invoice = i.id 
    JOIN invoice_status isa on isa.id = iss.id 
    WHERE isa.status = 'DRAFT' 
    AND i.deleted = 0 
    ORDER     BY i.id 
    DESC     LIMIT 5 
    OFFSET 0
 --> Execution Time: 0.00099015235900879, Seconds : 0.99015235900879
administrator - Tanggal/Waktu : 07-Aug-2021/09:02:19 AM => 
 --> 
    SELECT o.* 
    FROM `order` o 
    JOIN ( 
    SELECT max( id)  id, `order` 
    FROM order_status 
    GROUP     BY `order`)  oss on oss.order = o.id 
    JOIN order_status os on os.id = oss.id 
    WHERE os.status = 'DRAFT' 
    AND o.deleted = 0 
    ORDER     BY o.id 
    DESC     LIMIT 5 
    OFFSET 0
 --> Execution Time: 0.001309871673584, Seconds : 1.309871673584
administrator - Tanggal/Waktu : 07-Aug-2021/09:02:19 AM => 
 --> 
    SELECT ro.* 
    FROM retur_order ro 
    JOIN `order` o on o.id = ro.id 
    JOIN ( 
    SELECT max( id)  id, `order` 
    FROM order_status 
    GROUP     BY `order`)  oss on oss.order = o.id 
    JOIN order_status os on os.id = oss.id 
    WHERE ro.deleted = 0 
    AND os.status = 'DRAFT' 
    AND ro.deleted = 0 
    ORDER     BY ro.id 
    DESC     LIMIT 5 
    OFFSET 0
 --> Execution Time: 0.00075006484985352, Seconds : 0.75006484985352
