
----------../modules/database/controllers/login/index----------
 - Tanggal/Waktu : 05-Nov-2021/19:01:36 PM => 
 --> 
    SELECT * 
    FROM `general` 
    LIMIT 1000
 --> Execution Time: 0.007220983505249, Seconds : 7.220983505249
