
----------../modules/template/controllers/satuan/add----------
administrator - Tanggal/Waktu : 07-Aug-2021/08:53:12 AM => 
 --> 
    SELECT `p`.* 
    FROM `product` `p` 
    WHERE `p`.`deleted` =0 
    OR `p`.`deleted` 
    IS     NULL     LIMIT 1000
 --> Execution Time: 0.00053501129150391, Seconds : 0.53501129150391
administrator - Tanggal/Waktu : 07-Aug-2021/08:53:12 AM => 
 --> 
    SELECT `sa`.*, `s`.`nama_satuan` as `satuan_parent` 
    FROM `satuan` `sa` 
    LEFT     JOIN `satuan` `s` ON `sa`.`parent` = `s`.`id` 
    WHERE `sa`.`deleted` =0 
    LIMIT 1000
 --> Execution Time: 0.00049805641174316, Seconds : 0.49805641174316
administrator - Tanggal/Waktu : 07-Aug-2021/08:53:12 AM => 
 --> 
    SELECT * 
    FROM `general` 
    LIMIT 1000
 --> Execution Time: 0.0010039806365967, Seconds : 1.0039806365967
administrator - Tanggal/Waktu : 07-Aug-2021/08:53:12 AM => 
 --> 
    SELECT i.* 
    FROM invoice i 
    JOIN ( 
    SELECT max( id)  id, invoice 
    FROM invoice_status 
    GROUP     BY invoice)  iss on iss.invoice = i.id 
    JOIN invoice_status isa on isa.id = iss.id 
    WHERE isa.status = 'DRAFT' 
    AND i.deleted = 0 
    ORDER     BY i.id 
    DESC     LIMIT 5 
    OFFSET 0
 --> Execution Time: 0.0014481544494629, Seconds : 1.4481544494629
administrator - Tanggal/Waktu : 07-Aug-2021/08:53:12 AM => 
 --> 
    SELECT o.* 
    FROM `order` o 
    JOIN ( 
    SELECT max( id)  id, `order` 
    FROM order_status 
    GROUP     BY `order`)  oss on oss.order = o.id 
    JOIN order_status os on os.id = oss.id 
    WHERE os.status = 'DRAFT' 
    AND o.deleted = 0 
    ORDER     BY o.id 
    DESC     LIMIT 5 
    OFFSET 0
 --> Execution Time: 0.0014040470123291, Seconds : 1.4040470123291
administrator - Tanggal/Waktu : 07-Aug-2021/08:53:12 AM => 
 --> 
    SELECT ro.* 
    FROM retur_order ro 
    JOIN `order` o on o.id = ro.id 
    JOIN ( 
    SELECT max( id)  id, `order` 
    FROM order_status 
    GROUP     BY `order`)  oss on oss.order = o.id 
    JOIN order_status os on os.id = oss.id 
    WHERE ro.deleted = 0 
    AND os.status = 'DRAFT' 
    AND ro.deleted = 0 
    ORDER     BY ro.id 
    DESC     LIMIT 5 
    OFFSET 0
 --> Execution Time: 0.00064802169799805, Seconds : 0.64802169799805
