
----------../modules/database/controllers/login/index----------
lk2tjbtb@gmail.com - Tanggal/Waktu : 05-Sep-2021/06:13:21 AM => 
 --> 
    SELECT * 
    FROM `general` 
    LIMIT 1000
 --> Execution Time: 0.00094985961914062, Seconds : 0.94985961914062
