
----------../modules/template/controllers/lappelanggan/index----------
admin - Tanggal/Waktu : 01-Nov-2021/19:50:51 PM => 
 --> 
    SELECT * 
    FROM pembeli 
    WHERE deleted = 0 
    OR deleted 
    IS     NULL     LIMIT 1000 
    OFFSET 0
 --> Execution Time: 0.0005638599395752, Seconds : 0.5638599395752
admin - Tanggal/Waktu : 01-Nov-2021/19:50:51 PM => 
 --> 
    SELECT * 
    FROM `general` 
    LIMIT 1000
 --> Execution Time: 0.00035691261291504, Seconds : 0.35691261291504
admin - Tanggal/Waktu : 01-Nov-2021/19:50:51 PM => 
 --> 
    SELECT i.* 
    FROM invoice i 
    JOIN ( 
    SELECT max( id)  id, invoice 
    FROM invoice_status 
    GROUP     BY invoice)  iss on iss.invoice = i.id 
    JOIN invoice_status isa on isa.id = iss.id 
    WHERE isa.status = 'DRAFT' 
    AND i.deleted = 0 
    ORDER     BY i.id 
    DESC     LIMIT 5 
    OFFSET 0
 --> Execution Time: 0.00076913833618164, Seconds : 0.76913833618164
admin - Tanggal/Waktu : 01-Nov-2021/19:50:51 PM => 
 --> 
    SELECT o.* 
    FROM `order` o 
    JOIN ( 
    SELECT max( id)  id, `order` 
    FROM order_status 
    GROUP     BY `order`)  oss on oss.order = o.id 
    JOIN order_status os on os.id = oss.id 
    WHERE os.status = 'DRAFT' 
    AND o.deleted = 0 
    ORDER     BY o.id 
    DESC     LIMIT 5 
    OFFSET 0
 --> Execution Time: 0.00082802772521973, Seconds : 0.82802772521973
admin - Tanggal/Waktu : 01-Nov-2021/19:50:51 PM => 
 --> 
    SELECT ro.* 
    FROM retur_order ro 
    JOIN `order` o on o.id = ro.id 
    JOIN ( 
    SELECT max( id)  id, `order` 
    FROM order_status 
    GROUP     BY `order`)  oss on oss.order = o.id 
    JOIN order_status os on os.id = oss.id 
    WHERE ro.deleted = 0 
    AND os.status = 'DRAFT' 
    AND ro.deleted = 0 
    ORDER     BY ro.id 
    DESC     LIMIT 5 
    OFFSET 0
 --> Execution Time: 0.00060200691223145, Seconds : 0.60200691223145
