
----------../modules/template/controllers/order/add----------
admin - Tanggal/Waktu : 01-Nov-2021/19:54:06 PM => 
 --> 
    SELECT `p`.* 
    FROM `pembeli` `p` 
    WHERE `p`.`deleted` =0 
    OR `p`.`deleted` 
    IS     NULL     AND `p`.`pembeli_kategori` = 2 
    LIMIT 1000
 --> Execution Time: 0.00049018859863281, Seconds : 0.49018859863281
admin - Tanggal/Waktu : 01-Nov-2021/19:54:06 PM => 
 --> 
    SELECT * 
    FROM `metode_bayar` 
    LIMIT 1000
 --> Execution Time: 0.0003972053527832, Seconds : 0.3972053527832
admin - Tanggal/Waktu : 01-Nov-2021/19:54:06 PM => 
 --> 
    SELECT `p`.* 
    FROM `pajak` `p` 
    WHERE `p`.`deleted` =0 
    OR `p`.`deleted` 
    IS     NULL     LIMIT 1000
 --> Execution Time: 0.0022609233856201, Seconds : 2.2609233856201
admin - Tanggal/Waktu : 01-Nov-2021/19:54:06 PM => 
 --> 
    SELECT * 
    FROM `potongan` 
    ORDER     BY `id` 
    DESC     LIMIT 1000
 --> Execution Time: 0.0004880428314209, Seconds : 0.4880428314209
admin - Tanggal/Waktu : 01-Nov-2021/19:54:06 PM => 
 --> 
    SELECT p.* , ps.stock 
    FROM product p 
    LEFT     JOIN ( 
    SELECT max( id)  id, product 
    FROM product_stock 
    GROUP     BY product)  ps_max on ps_max.product = p.id 
    LEFT     JOIN product_stock ps on ps.id = ps_max.id 
    LEFT     JOIN product_satuan pst on ps.product_satuan = pst.id 
    LEFT     JOIN satuan s on s.id = pst.satuan 
    WHERE p.deleted = 0 
    AND pst.satuan_terkecil = 1
 --> Execution Time: 0.021515130996704, Seconds : 21.515130996704
admin - Tanggal/Waktu : 01-Nov-2021/19:54:06 PM => 
 --> 
    SELECT * 
    FROM `general` 
    LIMIT 1000
 --> Execution Time: 0.0030081272125244, Seconds : 3.0081272125244
admin - Tanggal/Waktu : 01-Nov-2021/19:54:06 PM => 
 --> 
    SELECT i.* 
    FROM invoice i 
    JOIN ( 
    SELECT max( id)  id, invoice 
    FROM invoice_status 
    GROUP     BY invoice)  iss on iss.invoice = i.id 
    JOIN invoice_status isa on isa.id = iss.id 
    WHERE isa.status = 'DRAFT' 
    AND i.deleted = 0 
    ORDER     BY i.id 
    DESC     LIMIT 5 
    OFFSET 0
 --> Execution Time: 0.0014269351959229, Seconds : 1.4269351959229
admin - Tanggal/Waktu : 01-Nov-2021/19:54:06 PM => 
 --> 
    SELECT o.* 
    FROM `order` o 
    JOIN ( 
    SELECT max( id)  id, `order` 
    FROM order_status 
    GROUP     BY `order`)  oss on oss.order = o.id 
    JOIN order_status os on os.id = oss.id 
    WHERE os.status = 'DRAFT' 
    AND o.deleted = 0 
    ORDER     BY o.id 
    DESC     LIMIT 5 
    OFFSET 0
 --> Execution Time: 0.0024139881134033, Seconds : 2.4139881134033
admin - Tanggal/Waktu : 01-Nov-2021/19:54:06 PM => 
 --> 
    SELECT ro.* 
    FROM retur_order ro 
    JOIN `order` o on o.id = ro.id 
    JOIN ( 
    SELECT max( id)  id, `order` 
    FROM order_status 
    GROUP     BY `order`)  oss on oss.order = o.id 
    JOIN order_status os on os.id = oss.id 
    WHERE ro.deleted = 0 
    AND os.status = 'DRAFT' 
    AND ro.deleted = 0 
    ORDER     BY ro.id 
    DESC     LIMIT 5 
    OFFSET 0
 --> Execution Time: 0.0013749599456787, Seconds : 1.3749599456787
