
----------../modules/template/controllers/satuan/ubah----------
admin - Tanggal/Waktu : 20-Oct-2021/17:37:50 PM => 
 --> 
    SELECT `kr`.*, `p`.`product` as `nama_product`, `s`.`nama_satuan`, `sp`.`nama_satuan` as `satuan_parent`, `hg`.`harga` as `harga_jual_fix`, `hgs`.`harga` `harga_grosir_fix` 
    FROM `product_satuan` `kr` 
    JOIN `product` `p` ON `kr`.`product` = `p`.`id` 
    JOIN ( 
    SELECT max( id)  id, product_satuan 
    FROM product_has_harga_jual 
    GROUP     BY product_satuan)  hg_max ON `hg_max`.`product_satuan` = `kr`.`id` 
    JOIN `product_has_harga_jual` `hg` ON `hg`.`id` = `hg_max`.`id` 
    LEFT     JOIN ( 
    SELECT max( id)  id, product_satuan 
    FROM product_has_harga_grosir 
    GROUP     BY product_satuan)  hgs_max ON `hgs_max`.`product_satuan` = `kr`.`id` 
    LEFT     JOIN `product_has_harga_grosir` `hgs` ON `hgs`.`id` = `hgs_max`.`id` 
    LEFT     JOIN `satuan` `s` ON `s`.`id` = `kr`.`satuan` 
    LEFT     JOIN `satuan` `sp` ON `sp`.`id` = `s`.`parent` 
    WHERE `kr`.`id` = '1675' 
    LIMIT 1000
 --> Execution Time: 0.0033190250396729, Seconds : 3.3190250396729
admin - Tanggal/Waktu : 20-Oct-2021/17:37:50 PM => 
 --> 
    SELECT `p`.* 
    FROM `product` `p` 
    WHERE `p`.`deleted` =0 
    OR `p`.`deleted` 
    IS     NULL     LIMIT 1000
 --> Execution Time: 0.0079989433288574, Seconds : 7.9989433288574
admin - Tanggal/Waktu : 20-Oct-2021/17:37:50 PM => 
 --> 
    SELECT `sa`.*, `s`.`nama_satuan` as `satuan_parent` 
    FROM `satuan` `sa` 
    LEFT     JOIN `satuan` `s` ON `sa`.`parent` = `s`.`id` 
    WHERE `sa`.`deleted` =0 
    LIMIT 1000
 --> Execution Time: 0.00061702728271484, Seconds : 0.61702728271484
admin - Tanggal/Waktu : 20-Oct-2021/17:37:50 PM => 
 --> 
    SELECT * 
    FROM `general` 
    LIMIT 1000
 --> Execution Time: 0.00035810470581055, Seconds : 0.35810470581055
admin - Tanggal/Waktu : 20-Oct-2021/17:37:50 PM => 
 --> 
    SELECT i.* 
    FROM invoice i 
    JOIN ( 
    SELECT max( id)  id, invoice 
    FROM invoice_status 
    GROUP     BY invoice)  iss on iss.invoice = i.id 
    JOIN invoice_status isa on isa.id = iss.id 
    WHERE isa.status = 'DRAFT' 
    AND i.deleted = 0 
    ORDER     BY i.id 
    DESC     LIMIT 5 
    OFFSET 0
 --> Execution Time: 0.00075197219848633, Seconds : 0.75197219848633
admin - Tanggal/Waktu : 20-Oct-2021/17:37:50 PM => 
 --> 
    SELECT o.* 
    FROM `order` o 
    JOIN ( 
    SELECT max( id)  id, `order` 
    FROM order_status 
    GROUP     BY `order`)  oss on oss.order = o.id 
    JOIN order_status os on os.id = oss.id 
    WHERE os.status = 'DRAFT' 
    AND o.deleted = 0 
    ORDER     BY o.id 
    DESC     LIMIT 5 
    OFFSET 0
 --> Execution Time: 0.00087904930114746, Seconds : 0.87904930114746
admin - Tanggal/Waktu : 20-Oct-2021/17:37:50 PM => 
 --> 
    SELECT ro.* 
    FROM retur_order ro 
    JOIN `order` o on o.id = ro.id 
    JOIN ( 
    SELECT max( id)  id, `order` 
    FROM order_status 
    GROUP     BY `order`)  oss on oss.order = o.id 
    JOIN order_status os on os.id = oss.id 
    WHERE ro.deleted = 0 
    AND os.status = 'DRAFT' 
    AND ro.deleted = 0 
    ORDER     BY ro.id 
    DESC     LIMIT 5 
    OFFSET 0
 --> Execution Time: 0.00081014633178711, Seconds : 0.81014633178711
