
----------../modules/database/controllers/satuan/ubahHargaJual----------
admin - Tanggal/Waktu : 07-Oct-2021/19:08:24 PM => 
 --> 
    SELECT `hg`.* 
    FROM `product_has_harga_jual` `hg` 
    WHERE `hg`.`product_satuan` = '1675' 
    ORDER     BY `hg`.`id` 
    DESC     LIMIT 1000
 --> Execution Time: 0.0013978481292725, Seconds : 1.3978481292725
