
----------../modules/template/controllers/order/add----------
administrator - Tanggal/Waktu : 07-Aug-2021/09:03:49 AM => 
 --> 
    SELECT `ps`.*, `p`.`product` as `nama_product`, `s`.`nama_satuan`, `pst`.`stock`, `p`.`kode_product` 
    FROM `product_satuan` `ps` 
    JOIN `product` `p` ON `ps`.`product` = `p`.`id` 
    LEFT     JOIN `satuan` `s` ON `ps`.`satuan` = `s`.`id` 
    JOIN `product_stock` `pst` ON `p`.`id` = `pst`.`product` 
    WHERE `ps`.`deleted` =0 
    OR `ps`.`deleted` 
    IS     NULL     LIMIT 1000
 --> Execution Time: 0.0017449855804443, Seconds : 1.7449855804443
administrator - Tanggal/Waktu : 07-Aug-2021/09:03:49 AM => 
 --> 
    SELECT `p`.* 
    FROM `pembeli` `p` 
    WHERE `p`.`deleted` =0 
    OR `p`.`deleted` 
    IS     NULL     AND `p`.`pembeli_kategori` = 2 
    LIMIT 1000
 --> Execution Time: 0.00075411796569824, Seconds : 0.75411796569824
administrator - Tanggal/Waktu : 07-Aug-2021/09:03:49 AM => 
 --> 
    SELECT * 
    FROM `metode_bayar` 
    LIMIT 1000
 --> Execution Time: 0.00049710273742676, Seconds : 0.49710273742676
administrator - Tanggal/Waktu : 07-Aug-2021/09:03:49 AM => 
 --> 
    SELECT `p`.* 
    FROM `pajak` `p` 
    WHERE `p`.`deleted` =0 
    OR `p`.`deleted` 
    IS     NULL     LIMIT 1000
 --> Execution Time: 0.00063800811767578, Seconds : 0.63800811767578
administrator - Tanggal/Waktu : 07-Aug-2021/09:03:49 AM => 
 --> 
    SELECT * 
    FROM `potongan` 
    ORDER     BY `id` 
    DESC     LIMIT 1000
 --> Execution Time: 0.0005190372467041, Seconds : 0.5190372467041
administrator - Tanggal/Waktu : 07-Aug-2021/09:03:49 AM => 
 --> 
    SELECT p.* , ps.stock 
    FROM product p 
    LEFT     JOIN ( 
    SELECT max( id)  id, product 
    FROM product_stock 
    GROUP     BY product)  ps_max on ps_max.product = p.id 
    LEFT     JOIN product_stock ps on ps.id = ps_max.id 
    LEFT     JOIN product_satuan pst on ps.product_satuan = pst.id 
    LEFT     JOIN satuan s on s.id = pst.satuan 
    WHERE p.deleted = 0 
    AND s.nama_satuan = 'PCS'
 --> Execution Time: 0.0012338161468506, Seconds : 1.2338161468506
administrator - Tanggal/Waktu : 07-Aug-2021/09:03:49 AM => 
 --> 
    SELECT * 
    FROM `general` 
    LIMIT 1000
 --> Execution Time: 0.00063800811767578, Seconds : 0.63800811767578
administrator - Tanggal/Waktu : 07-Aug-2021/09:03:49 AM => 
 --> 
    SELECT i.* 
    FROM invoice i 
    JOIN ( 
    SELECT max( id)  id, invoice 
    FROM invoice_status 
    GROUP     BY invoice)  iss on iss.invoice = i.id 
    JOIN invoice_status isa on isa.id = iss.id 
    WHERE isa.status = 'DRAFT' 
    AND i.deleted = 0 
    ORDER     BY i.id 
    DESC     LIMIT 5 
    OFFSET 0
 --> Execution Time: 0.0012869834899902, Seconds : 1.2869834899902
administrator - Tanggal/Waktu : 07-Aug-2021/09:03:49 AM => 
 --> 
    SELECT o.* 
    FROM `order` o 
    JOIN ( 
    SELECT max( id)  id, `order` 
    FROM order_status 
    GROUP     BY `order`)  oss on oss.order = o.id 
    JOIN order_status os on os.id = oss.id 
    WHERE os.status = 'DRAFT' 
    AND o.deleted = 0 
    ORDER     BY o.id 
    DESC     LIMIT 5 
    OFFSET 0
 --> Execution Time: 0.0019018650054932, Seconds : 1.9018650054932
administrator - Tanggal/Waktu : 07-Aug-2021/09:03:49 AM => 
 --> 
    SELECT ro.* 
    FROM retur_order ro 
    JOIN `order` o on o.id = ro.id 
    JOIN ( 
    SELECT max( id)  id, `order` 
    FROM order_status 
    GROUP     BY `order`)  oss on oss.order = o.id 
    JOIN order_status os on os.id = oss.id 
    WHERE ro.deleted = 0 
    AND os.status = 'DRAFT' 
    AND ro.deleted = 0 
    ORDER     BY ro.id 
    DESC     LIMIT 5 
    OFFSET 0
 --> Execution Time: 0.00070095062255859, Seconds : 0.70095062255859
