
----------../modules/template/controllers/unit/add----------
administrator - Tanggal/Waktu : 07-Aug-2021/08:30:44 AM => 
 --> 
    SELECT * 
    FROM `satuan` 
    WHERE `deleted` =0 
    LIMIT 1000
 --> Execution Time: 0.00098013877868652, Seconds : 0.98013877868652
administrator - Tanggal/Waktu : 07-Aug-2021/08:30:44 AM => 
 --> 
    SELECT * 
    FROM `general` 
    LIMIT 1000
 --> Execution Time: 0.00096392631530762, Seconds : 0.96392631530762
administrator - Tanggal/Waktu : 07-Aug-2021/08:30:44 AM => 
 --> 
    SELECT i.* 
    FROM invoice i 
    JOIN ( 
    SELECT max( id)  id, invoice 
    FROM invoice_status 
    GROUP     BY invoice)  iss on iss.invoice = i.id 
    JOIN invoice_status isa on isa.id = iss.id 
    WHERE isa.status = 'DRAFT' 
    AND i.deleted = 0 
    ORDER     BY i.id 
    DESC     LIMIT 5 
    OFFSET 0
 --> Execution Time: 0.0013139247894287, Seconds : 1.3139247894287
administrator - Tanggal/Waktu : 07-Aug-2021/08:30:44 AM => 
 --> 
    SELECT o.* 
    FROM `order` o 
    JOIN ( 
    SELECT max( id)  id, `order` 
    FROM order_status 
    GROUP     BY `order`)  oss on oss.order = o.id 
    JOIN order_status os on os.id = oss.id 
    WHERE os.status = 'DRAFT' 
    AND o.deleted = 0 
    ORDER     BY o.id 
    DESC     LIMIT 5 
    OFFSET 0
 --> Execution Time: 0.0015501976013184, Seconds : 1.5501976013184
administrator - Tanggal/Waktu : 07-Aug-2021/08:30:44 AM => 
 --> 
    SELECT ro.* 
    FROM retur_order ro 
    JOIN `order` o on o.id = ro.id 
    JOIN ( 
    SELECT max( id)  id, `order` 
    FROM order_status 
    GROUP     BY `order`)  oss on oss.order = o.id 
    JOIN order_status os on os.id = oss.id 
    WHERE ro.deleted = 0 
    AND os.status = 'DRAFT' 
    AND ro.deleted = 0 
    ORDER     BY ro.id 
    DESC     LIMIT 5 
    OFFSET 0
 --> Execution Time: 0.00086593627929688, Seconds : 0.86593627929688
