
----------../modules/template/controllers/produk/ubah----------
admin - Tanggal/Waktu : 11-Nov-2021/16:55:19 PM => 
 --> 
    SELECT `r`.*, `kr`.`kategori` as `product_kategori`, `tr`.`tipe` 
    FROM `product` `r` 
    JOIN `kategori_product` `kr` ON `r`.`kategori_product` = `kr`.`id` 
    JOIN `tipe_product` `tr` ON `r`.`tipe_product` = `tr`.`id` 
    WHERE `r`.`id` = '1677' 
    LIMIT 1000
 --> Execution Time: 0.001305103302002, Seconds : 1.305103302002
admin - Tanggal/Waktu : 11-Nov-2021/16:55:19 PM => 
 --> 
    SELECT * 
    FROM `tipe_product` 
    WHERE `deleted` 
    IS     NULL     OR `deleted` =0 
    LIMIT 1000
 --> Execution Time: 0.00069689750671387, Seconds : 0.69689750671387
admin - Tanggal/Waktu : 11-Nov-2021/16:55:19 PM => 
 --> 
    SELECT * 
    FROM `kategori_product` 
    WHERE `deleted` 
    IS     NULL     OR `deleted` =0 
    LIMIT 1000
 --> Execution Time: 0.0005030632019043, Seconds : 0.5030632019043
admin - Tanggal/Waktu : 11-Nov-2021/16:55:19 PM => 
 --> 
    SELECT * 
    FROM `product_has_foto` 
    WHERE `product` = '1677' 
    AND `status` 
    IS     NULL     LIMIT 1000
 --> Execution Time: 0.00072693824768066, Seconds : 0.72693824768066
admin - Tanggal/Waktu : 11-Nov-2021/16:55:19 PM => 
 --> 
    SELECT ps.* , s.nama_satuan 
    FROM product_satuan ps 
    JOIN product p on p.id = ps.product 
    JOIN satuan s on s.id = ps.satuan 
    WHERE ps.deleted = 0 
    AND p.id = 1677
 --> Execution Time: 0.00084805488586426, Seconds : 0.84805488586426
admin - Tanggal/Waktu : 11-Nov-2021/16:55:19 PM => 
 --> 
    SELECT * 
    FROM satuan s 
    WHERE deleted = 0
 --> Execution Time: 0.00030016899108887, Seconds : 0.30016899108887
admin - Tanggal/Waktu : 11-Nov-2021/16:55:19 PM => 
 --> 
    SELECT * 
    FROM `general` 
    LIMIT 1000
 --> Execution Time: 0.00076603889465332, Seconds : 0.76603889465332
admin - Tanggal/Waktu : 11-Nov-2021/16:55:19 PM => 
 --> 
    SELECT i.* 
    FROM invoice i 
    JOIN ( 
    SELECT max( id)  id, invoice 
    FROM invoice_status 
    GROUP     BY invoice)  iss on iss.invoice = i.id 
    JOIN invoice_status isa on isa.id = iss.id 
    WHERE isa.status = 'DRAFT' 
    AND i.deleted = 0 
    ORDER     BY i.id 
    DESC     LIMIT 5 
    OFFSET 0
 --> Execution Time: 0.0015971660614014, Seconds : 1.5971660614014
admin - Tanggal/Waktu : 11-Nov-2021/16:55:19 PM => 
 --> 
    SELECT o.* 
    FROM `order` o 
    JOIN ( 
    SELECT max( id)  id, `order` 
    FROM order_status 
    GROUP     BY `order`)  oss on oss.order = o.id 
    JOIN order_status os on os.id = oss.id 
    WHERE os.status = 'DRAFT' 
    AND o.deleted = 0 
    ORDER     BY o.id 
    DESC     LIMIT 5 
    OFFSET 0
 --> Execution Time: 0.0015439987182617, Seconds : 1.5439987182617
admin - Tanggal/Waktu : 11-Nov-2021/16:55:19 PM => 
 --> 
    SELECT ro.* 
    FROM retur_order ro 
    JOIN `order` o on o.id = ro.id 
    JOIN ( 
    SELECT max( id)  id, `order` 
    FROM order_status 
    GROUP     BY `order`)  oss on oss.order = o.id 
    JOIN order_status os on os.id = oss.id 
    WHERE ro.deleted = 0 
    AND os.status = 'DRAFT' 
    AND ro.deleted = 0 
    ORDER     BY ro.id 
    DESC     LIMIT 5 
    OFFSET 0
 --> Execution Time: 0.00094318389892578, Seconds : 0.94318389892578
