
----------../modules/template/controllers/produk/ubah----------
admin - Tanggal/Waktu : 11-Nov-2021/16:45:34 PM => 
 --> 
    SELECT `r`.*, `kr`.`kategori` as `product_kategori`, `tr`.`tipe` 
    FROM `product` `r` 
    JOIN `kategori_product` `kr` ON `r`.`kategori_product` = `kr`.`id` 
    JOIN `tipe_product` `tr` ON `r`.`tipe_product` = `tr`.`id` 
    WHERE `r`.`id` = '1677' 
    LIMIT 1000
 --> Execution Time: 0.0018661022186279, Seconds : 1.8661022186279
admin - Tanggal/Waktu : 11-Nov-2021/16:45:34 PM => 
 --> 
    SELECT * 
    FROM `tipe_product` 
    WHERE `deleted` 
    IS     NULL     OR `deleted` =0 
    LIMIT 1000
 --> Execution Time: 0.00052213668823242, Seconds : 0.52213668823242
admin - Tanggal/Waktu : 11-Nov-2021/16:45:34 PM => 
 --> 
    SELECT * 
    FROM `kategori_product` 
    WHERE `deleted` 
    IS     NULL     OR `deleted` =0 
    LIMIT 1000
 --> Execution Time: 0.0009920597076416, Seconds : 0.9920597076416
admin - Tanggal/Waktu : 11-Nov-2021/16:45:34 PM => 
 --> 
    SELECT * 
    FROM `product_has_foto` 
    WHERE `product` = '1677' 
    AND `status` 
    IS     NULL     LIMIT 1000
 --> Execution Time: 0.00078296661376953, Seconds : 0.78296661376953
admin - Tanggal/Waktu : 11-Nov-2021/16:45:34 PM => 
 --> 
    SELECT ps.* , s.nama_satuan 
    FROM product_satuan ps 
    JOIN product p on p.id = ps.product 
    JOIN satuan s on s.id = ps.satuan 
    WHERE ps.deleted = 0 
    AND p.id = 1677
 --> Execution Time: 0.00070905685424805, Seconds : 0.70905685424805
admin - Tanggal/Waktu : 11-Nov-2021/16:45:34 PM => 
 --> 
    SELECT * 
    FROM satuan s 
    WHERE deleted = 0
 --> Execution Time: 0.00061392784118652, Seconds : 0.61392784118652
admin - Tanggal/Waktu : 11-Nov-2021/16:45:34 PM => 
 --> 
    SELECT * 
    FROM `general` 
    LIMIT 1000
 --> Execution Time: 0.00044703483581543, Seconds : 0.44703483581543
admin - Tanggal/Waktu : 11-Nov-2021/16:45:34 PM => 
 --> 
    SELECT i.* 
    FROM invoice i 
    JOIN ( 
    SELECT max( id)  id, invoice 
    FROM invoice_status 
    GROUP     BY invoice)  iss on iss.invoice = i.id 
    JOIN invoice_status isa on isa.id = iss.id 
    WHERE isa.status = 'DRAFT' 
    AND i.deleted = 0 
    ORDER     BY i.id 
    DESC     LIMIT 5 
    OFFSET 0
 --> Execution Time: 0.0013840198516846, Seconds : 1.3840198516846
admin - Tanggal/Waktu : 11-Nov-2021/16:45:34 PM => 
 --> 
    SELECT o.* 
    FROM `order` o 
    JOIN ( 
    SELECT max( id)  id, `order` 
    FROM order_status 
    GROUP     BY `order`)  oss on oss.order = o.id 
    JOIN order_status os on os.id = oss.id 
    WHERE os.status = 'DRAFT' 
    AND o.deleted = 0 
    ORDER     BY o.id 
    DESC     LIMIT 5 
    OFFSET 0
 --> Execution Time: 0.001133918762207, Seconds : 1.133918762207
admin - Tanggal/Waktu : 11-Nov-2021/16:45:34 PM => 
 --> 
    SELECT ro.* 
    FROM retur_order ro 
    JOIN `order` o on o.id = ro.id 
    JOIN ( 
    SELECT max( id)  id, `order` 
    FROM order_status 
    GROUP     BY `order`)  oss on oss.order = o.id 
    JOIN order_status os on os.id = oss.id 
    WHERE ro.deleted = 0 
    AND os.status = 'DRAFT' 
    AND ro.deleted = 0 
    ORDER     BY ro.id 
    DESC     LIMIT 5 
    OFFSET 0
 --> Execution Time: 0.00089788436889648, Seconds : 0.89788436889648
