
----------../modules/order/controllers/order/chooseProduk----------
admin - Tanggal/Waktu : 17-Aug-2021/07:52:50 AM => 
 --> 
    SELECT ps.* , s.nama_satuan , ps.qty as konversi , ps.ket_harga as keterangan 
    FROM product_satuan ps 
    JOIN satuan s on s.id = ps.satuan 
    WHERE ps.product = 1677 
    AND ps.deleted = 0
 --> Execution Time: 0.0010819435119629, Seconds : 1.0819435119629
admin - Tanggal/Waktu : 17-Aug-2021/07:52:50 AM => 
 --> 
    SELECT ps.* , s.nama_satuan , ps.qty as konversi , ps.ket_harga as keterangan 
    FROM product_satuan ps 
    JOIN satuan s on s.id = ps.satuan 
    WHERE ps.product = 1677 
    AND ps.deleted = 0 
    AND ps.satuan_terkecil = 1
 --> Execution Time: 0.0016298294067383, Seconds : 1.6298294067383
