
----------../modules/template/controllers/unit/index----------
administrator - Tanggal/Waktu : 07-Aug-2021/08:31:04 AM => 
 --> 
    SELECT `k`.*, `s`.`nama_satuan` as `nama_group` 
    FROM `satuan` `k` 
    LEFT     JOIN `satuan` `s` ON `k`.`parent` = `s`.`id` 
    WHERE `k`.`deleted` 
    IS     NULL     OR `k`.`deleted` =0 
    LIMIT 10
 --> Execution Time: 0.00060105323791504, Seconds : 0.60105323791504
administrator - Tanggal/Waktu : 07-Aug-2021/08:31:04 AM => 
 --> 
    SELECT COUNT( *)  AS `numrows` 
    FROM `satuan` `k` 
    LEFT     JOIN `satuan` `s` ON `k`.`parent` = `s`.`id` 
    WHERE `k`.`deleted` 
    IS     NULL     OR `k`.`deleted` =0
 --> Execution Time: 0.0020568370819092, Seconds : 2.0568370819092
administrator - Tanggal/Waktu : 07-Aug-2021/08:31:04 AM => 
 --> 
    SELECT * 
    FROM `general` 
    LIMIT 1000
 --> Execution Time: 0.00044012069702148, Seconds : 0.44012069702148
administrator - Tanggal/Waktu : 07-Aug-2021/08:31:04 AM => 
 --> 
    SELECT i.* 
    FROM invoice i 
    JOIN ( 
    SELECT max( id)  id, invoice 
    FROM invoice_status 
    GROUP     BY invoice)  iss on iss.invoice = i.id 
    JOIN invoice_status isa on isa.id = iss.id 
    WHERE isa.status = 'DRAFT' 
    AND i.deleted = 0 
    ORDER     BY i.id 
    DESC     LIMIT 5 
    OFFSET 0
 --> Execution Time: 0.0010368824005127, Seconds : 1.0368824005127
administrator - Tanggal/Waktu : 07-Aug-2021/08:31:04 AM => 
 --> 
    SELECT o.* 
    FROM `order` o 
    JOIN ( 
    SELECT max( id)  id, `order` 
    FROM order_status 
    GROUP     BY `order`)  oss on oss.order = o.id 
    JOIN order_status os on os.id = oss.id 
    WHERE os.status = 'DRAFT' 
    AND o.deleted = 0 
    ORDER     BY o.id 
    DESC     LIMIT 5 
    OFFSET 0
 --> Execution Time: 0.001295804977417, Seconds : 1.295804977417
administrator - Tanggal/Waktu : 07-Aug-2021/08:31:04 AM => 
 --> 
    SELECT ro.* 
    FROM retur_order ro 
    JOIN `order` o on o.id = ro.id 
    JOIN ( 
    SELECT max( id)  id, `order` 
    FROM order_status 
    GROUP     BY `order`)  oss on oss.order = o.id 
    JOIN order_status os on os.id = oss.id 
    WHERE ro.deleted = 0 
    AND os.status = 'DRAFT' 
    AND ro.deleted = 0 
    ORDER     BY ro.id 
    DESC     LIMIT 5 
    OFFSET 0
 --> Execution Time: 0.00066399574279785, Seconds : 0.66399574279785
