
----------../modules/template/controllers/unit/index----------
admin - Tanggal/Waktu : 08-Aug-2021/16:45:31 PM => 
 --> 
    SELECT `k`.*, `s`.`nama_satuan` as `nama_group` 
    FROM `satuan` `k` 
    LEFT     JOIN `satuan` `s` ON `k`.`parent` = `s`.`id` 
    WHERE `k`.`deleted` 
    IS     NULL     OR `k`.`deleted` =0 
    LIMIT 10
 --> Execution Time: 0.00079512596130371, Seconds : 0.79512596130371
admin - Tanggal/Waktu : 08-Aug-2021/16:45:31 PM => 
 --> 
    SELECT COUNT( *)  AS `numrows` 
    FROM `satuan` `k` 
    LEFT     JOIN `satuan` `s` ON `k`.`parent` = `s`.`id` 
    WHERE `k`.`deleted` 
    IS     NULL     OR `k`.`deleted` =0
 --> Execution Time: 0.00052094459533691, Seconds : 0.52094459533691
admin - Tanggal/Waktu : 08-Aug-2021/16:45:31 PM => 
 --> 
    SELECT * 
    FROM `general` 
    LIMIT 1000
 --> Execution Time: 0.00043082237243652, Seconds : 0.43082237243652
admin - Tanggal/Waktu : 08-Aug-2021/16:45:31 PM => 
 --> 
    SELECT i.* 
    FROM invoice i 
    JOIN ( 
    SELECT max( id)  id, invoice 
    FROM invoice_status 
    GROUP     BY invoice)  iss on iss.invoice = i.id 
    JOIN invoice_status isa on isa.id = iss.id 
    WHERE isa.status = 'DRAFT' 
    AND i.deleted = 0 
    ORDER     BY i.id 
    DESC     LIMIT 5 
    OFFSET 0
 --> Execution Time: 0.00088691711425781, Seconds : 0.88691711425781
admin - Tanggal/Waktu : 08-Aug-2021/16:45:31 PM => 
 --> 
    SELECT o.* 
    FROM `order` o 
    JOIN ( 
    SELECT max( id)  id, `order` 
    FROM order_status 
    GROUP     BY `order`)  oss on oss.order = o.id 
    JOIN order_status os on os.id = oss.id 
    WHERE os.status = 'DRAFT' 
    AND o.deleted = 0 
    ORDER     BY o.id 
    DESC     LIMIT 5 
    OFFSET 0
 --> Execution Time: 0.0012969970703125, Seconds : 1.2969970703125
admin - Tanggal/Waktu : 08-Aug-2021/16:45:31 PM => 
 --> 
    SELECT ro.* 
    FROM retur_order ro 
    JOIN `order` o on o.id = ro.id 
    JOIN ( 
    SELECT max( id)  id, `order` 
    FROM order_status 
    GROUP     BY `order`)  oss on oss.order = o.id 
    JOIN order_status os on os.id = oss.id 
    WHERE ro.deleted = 0 
    AND os.status = 'DRAFT' 
    AND ro.deleted = 0 
    ORDER     BY ro.id 
    DESC     LIMIT 5 
    OFFSET 0
 --> Execution Time: 0.00078701972961426, Seconds : 0.78701972961426
