
----------../modules/template/controllers/unit/add----------
administrator - Tanggal/Waktu : 07-Aug-2021/08:30:01 AM => 
 --> 
    SELECT * 
    FROM `satuan` 
    WHERE `deleted` =0 
    LIMIT 1000
 --> Execution Time: 0.00045204162597656, Seconds : 0.45204162597656
administrator - Tanggal/Waktu : 07-Aug-2021/08:30:01 AM => 
 --> 
    SELECT * 
    FROM `general` 
    LIMIT 1000
 --> Execution Time: 0.00042605400085449, Seconds : 0.42605400085449
administrator - Tanggal/Waktu : 07-Aug-2021/08:30:01 AM => 
 --> 
    SELECT i.* 
    FROM invoice i 
    JOIN ( 
    SELECT max( id)  id, invoice 
    FROM invoice_status 
    GROUP     BY invoice)  iss on iss.invoice = i.id 
    JOIN invoice_status isa on isa.id = iss.id 
    WHERE isa.status = 'DRAFT' 
    AND i.deleted = 0 
    ORDER     BY i.id 
    DESC     LIMIT 5 
    OFFSET 0
 --> Execution Time: 0.0010251998901367, Seconds : 1.0251998901367
administrator - Tanggal/Waktu : 07-Aug-2021/08:30:01 AM => 
 --> 
    SELECT o.* 
    FROM `order` o 
    JOIN ( 
    SELECT max( id)  id, `order` 
    FROM order_status 
    GROUP     BY `order`)  oss on oss.order = o.id 
    JOIN order_status os on os.id = oss.id 
    WHERE os.status = 'DRAFT' 
    AND o.deleted = 0 
    ORDER     BY o.id 
    DESC     LIMIT 5 
    OFFSET 0
 --> Execution Time: 0.0014338493347168, Seconds : 1.4338493347168
administrator - Tanggal/Waktu : 07-Aug-2021/08:30:01 AM => 
 --> 
    SELECT ro.* 
    FROM retur_order ro 
    JOIN `order` o on o.id = ro.id 
    JOIN ( 
    SELECT max( id)  id, `order` 
    FROM order_status 
    GROUP     BY `order`)  oss on oss.order = o.id 
    JOIN order_status os on os.id = oss.id 
    WHERE ro.deleted = 0 
    AND os.status = 'DRAFT' 
    AND ro.deleted = 0 
    ORDER     BY ro.id 
    DESC     LIMIT 5 
    OFFSET 0
 --> Execution Time: 0.00064206123352051, Seconds : 0.64206123352051
