
----------../modules/database/controllers/login/sign_in----------
 - Tanggal/Waktu : 07-Aug-2021/09:48:29 AM => 
 --> 
    SELECT `u`.*, `p`.`hak_akses` 
    FROM `user` `u` 
    JOIN `priveledge` `p` ON `u`.`priveledge` = `p`.`id` 
    WHERE `u`.`username` = 'admin' 
    AND `u`.`password` = '93207db25ad357906be2fd0c3f65f3dc' 
    AND ( `u`.`deleted` =0 
    OR `u`.`deleted` 
    IS     NULL)  
    LIMIT 1000
 --> Execution Time: 0.00073695182800293, Seconds : 0.73695182800293
