
----------../modules/database/controllers/order/simpan----------
administrator - Tanggal/Waktu : 01-Aug-2021/10:29:27 AM => 
 --> 
    SELECT * 
    FROM `order` 
    WHERE `no_order` 
    LIKE '%OR21AUG%' 
    ESCAPE '!' 
    ORDER     BY `id` 
    DESC     LIMIT 1000
 --> Execution Time: 0.00095486640930176, Seconds : 0.95486640930176
administrator - Tanggal/Waktu : 01-Aug-2021/10:29:27 AM => 
 --> 
    INSERT     INTO `order` ( `no_order`, `pembeli`, `potongan`, `metode_bayar`, `pot_faktur`, `tanggal_faktur`, `total`, `createddate`, `createdby`)  
    VALUES ( 'OR21AUG004', '380', '3', '1', '0', '2021-08-01 10:29:27', '5000', '2021-08-01 10:29:27', '1') 
 --> Execution Time: 0.00042104721069336, Seconds : 0.42104721069336
administrator - Tanggal/Waktu : 01-Aug-2021/10:29:27 AM => 
 --> 
    INSERT     INTO `order_product` ( `order`, `product_satuan`, `qty`, `sub_total`, `createddate`, `createdby`)  
    VALUES ( 27, '6', '1', '5000', '2021-08-01 10:29:27', '1') 
 --> Execution Time: 0.00028896331787109, Seconds : 0.28896331787109
administrator - Tanggal/Waktu : 01-Aug-2021/10:29:27 AM => 
 --> 
    INSERT     INTO `order_status` ( `order`, `status`, `createddate`, `createdby`)  
    VALUES ( 27, 'DRAFT', '2021-08-01 10:29:27', '1') 
 --> Execution Time: 0.00025200843811035, Seconds : 0.25200843811035
