
----------../modules/template/controllers/unit/add----------
administrator - Tanggal/Waktu : 07-Aug-2021/08:31:30 AM => 
 --> 
    SELECT * 
    FROM `satuan` 
    WHERE `deleted` =0 
    LIMIT 1000
 --> Execution Time: 0.00067305564880371, Seconds : 0.67305564880371
administrator - Tanggal/Waktu : 07-Aug-2021/08:31:30 AM => 
 --> 
    SELECT * 
    FROM `general` 
    LIMIT 1000
 --> Execution Time: 0.0030739307403564, Seconds : 3.0739307403564
administrator - Tanggal/Waktu : 07-Aug-2021/08:31:30 AM => 
 --> 
    SELECT i.* 
    FROM invoice i 
    JOIN ( 
    SELECT max( id)  id, invoice 
    FROM invoice_status 
    GROUP     BY invoice)  iss on iss.invoice = i.id 
    JOIN invoice_status isa on isa.id = iss.id 
    WHERE isa.status = 'DRAFT' 
    AND i.deleted = 0 
    ORDER     BY i.id 
    DESC     LIMIT 5 
    OFFSET 0
 --> Execution Time: 0.0013208389282227, Seconds : 1.3208389282227
administrator - Tanggal/Waktu : 07-Aug-2021/08:31:30 AM => 
 --> 
    SELECT o.* 
    FROM `order` o 
    JOIN ( 
    SELECT max( id)  id, `order` 
    FROM order_status 
    GROUP     BY `order`)  oss on oss.order = o.id 
    JOIN order_status os on os.id = oss.id 
    WHERE os.status = 'DRAFT' 
    AND o.deleted = 0 
    ORDER     BY o.id 
    DESC     LIMIT 5 
    OFFSET 0
 --> Execution Time: 0.0014650821685791, Seconds : 1.4650821685791
administrator - Tanggal/Waktu : 07-Aug-2021/08:31:30 AM => 
 --> 
    SELECT ro.* 
    FROM retur_order ro 
    JOIN `order` o on o.id = ro.id 
    JOIN ( 
    SELECT max( id)  id, `order` 
    FROM order_status 
    GROUP     BY `order`)  oss on oss.order = o.id 
    JOIN order_status os on os.id = oss.id 
    WHERE ro.deleted = 0 
    AND os.status = 'DRAFT' 
    AND ro.deleted = 0 
    ORDER     BY ro.id 
    DESC     LIMIT 5 
    OFFSET 0
 --> Execution Time: 0.00085091590881348, Seconds : 0.85091590881348
