
----------../modules/produk/controllers/produk/addItem----------
admin - Tanggal/Waktu : 11-Nov-2021/16:28:24 PM => 
 --> 
    SELECT * 
    FROM satuan s 
    WHERE deleted = 0
 --> Execution Time: 0.0010149478912354, Seconds : 1.0149478912354
