
----------../modules/order/controllers/order/chooseProduk----------
administrator - Tanggal/Waktu : 07-Aug-2021/09:22:19 AM => 
 --> 
    SELECT ps.* , s.nama_satuan , ps.qty as konversi , ps.ket_harga as keterangan 
    FROM product_satuan ps 
    JOIN satuan s on s.id = ps.satuan 
    WHERE ps.product = 3159 
    AND ps.deleted = 0
 --> Execution Time: 0.00069093704223633, Seconds : 0.69093704223633
