
----------../modules/template/controllers/unit/add----------
admin - Tanggal/Waktu : 08-Aug-2021/16:42:13 PM => 
 --> 
    SELECT * 
    FROM `satuan` 
    WHERE `deleted` =0 
    LIMIT 1000
 --> Execution Time: 0.0011429786682129, Seconds : 1.1429786682129
admin - Tanggal/Waktu : 08-Aug-2021/16:42:13 PM => 
 --> 
    SELECT * 
    FROM `general` 
    LIMIT 1000
 --> Execution Time: 0.00058197975158691, Seconds : 0.58197975158691
admin - Tanggal/Waktu : 08-Aug-2021/16:42:13 PM => 
 --> 
    SELECT i.* 
    FROM invoice i 
    JOIN ( 
    SELECT max( id)  id, invoice 
    FROM invoice_status 
    GROUP     BY invoice)  iss on iss.invoice = i.id 
    JOIN invoice_status isa on isa.id = iss.id 
    WHERE isa.status = 'DRAFT' 
    AND i.deleted = 0 
    ORDER     BY i.id 
    DESC     LIMIT 5 
    OFFSET 0
 --> Execution Time: 0.00077390670776367, Seconds : 0.77390670776367
admin - Tanggal/Waktu : 08-Aug-2021/16:42:13 PM => 
 --> 
    SELECT o.* 
    FROM `order` o 
    JOIN ( 
    SELECT max( id)  id, `order` 
    FROM order_status 
    GROUP     BY `order`)  oss on oss.order = o.id 
    JOIN order_status os on os.id = oss.id 
    WHERE os.status = 'DRAFT' 
    AND o.deleted = 0 
    ORDER     BY o.id 
    DESC     LIMIT 5 
    OFFSET 0
 --> Execution Time: 0.00061893463134766, Seconds : 0.61893463134766
admin - Tanggal/Waktu : 08-Aug-2021/16:42:13 PM => 
 --> 
    SELECT ro.* 
    FROM retur_order ro 
    JOIN `order` o on o.id = ro.id 
    JOIN ( 
    SELECT max( id)  id, `order` 
    FROM order_status 
    GROUP     BY `order`)  oss on oss.order = o.id 
    JOIN order_status os on os.id = oss.id 
    WHERE ro.deleted = 0 
    AND os.status = 'DRAFT' 
    AND ro.deleted = 0 
    ORDER     BY ro.id 
    DESC     LIMIT 5 
    OFFSET 0
 --> Execution Time: 0.00062704086303711, Seconds : 0.62704086303711
