
----------../modules/template/controllers/satuan/detail----------
admin - Tanggal/Waktu : 11-Nov-2021/16:04:45 PM => 
 --> 
    SELECT `kr`.*, `p`.`product` as `nama_product`, `s`.`nama_satuan`, `sp`.`nama_satuan` as `satuan_parent`, `hg`.`harga` as `harga_jual_fix`, `hgs`.`harga` `harga_grosir_fix` 
    FROM `product_satuan` `kr` 
    JOIN `product` `p` ON `kr`.`product` = `p`.`id` 
    JOIN ( 
    SELECT max( id)  id, product_satuan 
    FROM product_has_harga_jual 
    GROUP     BY product_satuan)  hg_max ON `hg_max`.`product_satuan` = `kr`.`id` 
    JOIN `product_has_harga_jual` `hg` ON `hg`.`id` = `hg_max`.`id` 
    LEFT     JOIN ( 
    SELECT max( id)  id, product_satuan 
    FROM product_has_harga_grosir 
    GROUP     BY product_satuan)  hgs_max ON `hgs_max`.`product_satuan` = `kr`.`id` 
    LEFT     JOIN `product_has_harga_grosir` `hgs` ON `hgs`.`id` = `hgs_max`.`id` 
    LEFT     JOIN `satuan` `s` ON `s`.`id` = `kr`.`satuan` 
    LEFT     JOIN `satuan` `sp` ON `sp`.`id` = `s`.`parent` 
    WHERE `kr`.`id` = '1675' 
    LIMIT 1000
 --> Execution Time: 0.017509937286377, Seconds : 17.509937286377
admin - Tanggal/Waktu : 11-Nov-2021/16:04:45 PM => 
 --> 
    SELECT * 
    FROM `general` 
    LIMIT 1000
 --> Execution Time: 0.00036287307739258, Seconds : 0.36287307739258
admin - Tanggal/Waktu : 11-Nov-2021/16:04:45 PM => 
 --> 
    SELECT i.* 
    FROM invoice i 
    JOIN ( 
    SELECT max( id)  id, invoice 
    FROM invoice_status 
    GROUP     BY invoice)  iss on iss.invoice = i.id 
    JOIN invoice_status isa on isa.id = iss.id 
    WHERE isa.status = 'DRAFT' 
    AND i.deleted = 0 
    ORDER     BY i.id 
    DESC     LIMIT 5 
    OFFSET 0
 --> Execution Time: 0.00080490112304688, Seconds : 0.80490112304688
admin - Tanggal/Waktu : 11-Nov-2021/16:04:45 PM => 
 --> 
    SELECT o.* 
    FROM `order` o 
    JOIN ( 
    SELECT max( id)  id, `order` 
    FROM order_status 
    GROUP     BY `order`)  oss on oss.order = o.id 
    JOIN order_status os on os.id = oss.id 
    WHERE os.status = 'DRAFT' 
    AND o.deleted = 0 
    ORDER     BY o.id 
    DESC     LIMIT 5 
    OFFSET 0
 --> Execution Time: 0.00071978569030762, Seconds : 0.71978569030762
admin - Tanggal/Waktu : 11-Nov-2021/16:04:45 PM => 
 --> 
    SELECT ro.* 
    FROM retur_order ro 
    JOIN `order` o on o.id = ro.id 
    JOIN ( 
    SELECT max( id)  id, `order` 
    FROM order_status 
    GROUP     BY `order`)  oss on oss.order = o.id 
    JOIN order_status os on os.id = oss.id 
    WHERE ro.deleted = 0 
    AND os.status = 'DRAFT' 
    AND ro.deleted = 0 
    ORDER     BY ro.id 
    DESC     LIMIT 5 
    OFFSET 0
 --> Execution Time: 0.00046300888061523, Seconds : 0.46300888061523
