
----------../modules/template/controllers/unit/index----------
admin - Tanggal/Waktu : 08-Aug-2021/13:08:06 PM => 
 --> 
    SELECT `k`.*, `s`.`nama_satuan` as `nama_group` 
    FROM `satuan` `k` 
    LEFT     JOIN `satuan` `s` ON `k`.`parent` = `s`.`id` 
    WHERE `k`.`deleted` 
    IS     NULL     OR `k`.`deleted` =0 
    LIMIT 10
 --> Execution Time: 0.001338005065918, Seconds : 1.338005065918
admin - Tanggal/Waktu : 08-Aug-2021/13:08:06 PM => 
 --> 
    SELECT COUNT( *)  AS `numrows` 
    FROM `satuan` `k` 
    LEFT     JOIN `satuan` `s` ON `k`.`parent` = `s`.`id` 
    WHERE `k`.`deleted` 
    IS     NULL     OR `k`.`deleted` =0
 --> Execution Time: 0.00043582916259766, Seconds : 0.43582916259766
admin - Tanggal/Waktu : 08-Aug-2021/13:08:06 PM => 
 --> 
    SELECT * 
    FROM `general` 
    LIMIT 1000
 --> Execution Time: 0.0018019676208496, Seconds : 1.8019676208496
admin - Tanggal/Waktu : 08-Aug-2021/13:08:06 PM => 
 --> 
    SELECT i.* 
    FROM invoice i 
    JOIN ( 
    SELECT max( id)  id, invoice 
    FROM invoice_status 
    GROUP     BY invoice)  iss on iss.invoice = i.id 
    JOIN invoice_status isa on isa.id = iss.id 
    WHERE isa.status = 'DRAFT' 
    AND i.deleted = 0 
    ORDER     BY i.id 
    DESC     LIMIT 5 
    OFFSET 0
 --> Execution Time: 0.00096702575683594, Seconds : 0.96702575683594
admin - Tanggal/Waktu : 08-Aug-2021/13:08:06 PM => 
 --> 
    SELECT o.* 
    FROM `order` o 
    JOIN ( 
    SELECT max( id)  id, `order` 
    FROM order_status 
    GROUP     BY `order`)  oss on oss.order = o.id 
    JOIN order_status os on os.id = oss.id 
    WHERE os.status = 'DRAFT' 
    AND o.deleted = 0 
    ORDER     BY o.id 
    DESC     LIMIT 5 
    OFFSET 0
 --> Execution Time: 0.00067400932312012, Seconds : 0.67400932312012
admin - Tanggal/Waktu : 08-Aug-2021/13:08:06 PM => 
 --> 
    SELECT ro.* 
    FROM retur_order ro 
    JOIN `order` o on o.id = ro.id 
    JOIN ( 
    SELECT max( id)  id, `order` 
    FROM order_status 
    GROUP     BY `order`)  oss on oss.order = o.id 
    JOIN order_status os on os.id = oss.id 
    WHERE ro.deleted = 0 
    AND os.status = 'DRAFT' 
    AND ro.deleted = 0 
    ORDER     BY ro.id 
    DESC     LIMIT 5 
    OFFSET 0
 --> Execution Time: 0.00059914588928223, Seconds : 0.59914588928223
