
----------../modules/template/controllers/pengadaan/index----------
administrator - Tanggal/Waktu : 07-Aug-2021/09:01:44 AM => 
 --> 
    SELECT `p`.*, `v`.`nama_vendor` 
    FROM `procurement` `p` 
    JOIN `vendor` `v` ON `v`.`id` = `p`.`vendor` 
    WHERE `p`.`deleted` 
    IS     NULL     OR `p`.`deleted` =0 
    LIMIT 10
 --> Execution Time: 0.00079894065856934, Seconds : 0.79894065856934
administrator - Tanggal/Waktu : 07-Aug-2021/09:01:44 AM => 
 --> 
    SELECT COUNT( *)  AS `numrows` 
    FROM `procurement` `p` 
    JOIN `vendor` `v` ON `v`.`id` = `p`.`vendor` 
    WHERE `p`.`deleted` 
    IS     NULL     OR `p`.`deleted` =0
 --> Execution Time: 0.00046014785766602, Seconds : 0.46014785766602
administrator - Tanggal/Waktu : 07-Aug-2021/09:01:44 AM => 
 --> 
    SELECT * 
    FROM `general` 
    LIMIT 1000
 --> Execution Time: 0.00041794776916504, Seconds : 0.41794776916504
administrator - Tanggal/Waktu : 07-Aug-2021/09:01:44 AM => 
 --> 
    SELECT i.* 
    FROM invoice i 
    JOIN ( 
    SELECT max( id)  id, invoice 
    FROM invoice_status 
    GROUP     BY invoice)  iss on iss.invoice = i.id 
    JOIN invoice_status isa on isa.id = iss.id 
    WHERE isa.status = 'DRAFT' 
    AND i.deleted = 0 
    ORDER     BY i.id 
    DESC     LIMIT 5 
    OFFSET 0
 --> Execution Time: 0.0010900497436523, Seconds : 1.0900497436523
administrator - Tanggal/Waktu : 07-Aug-2021/09:01:44 AM => 
 --> 
    SELECT o.* 
    FROM `order` o 
    JOIN ( 
    SELECT max( id)  id, `order` 
    FROM order_status 
    GROUP     BY `order`)  oss on oss.order = o.id 
    JOIN order_status os on os.id = oss.id 
    WHERE os.status = 'DRAFT' 
    AND o.deleted = 0 
    ORDER     BY o.id 
    DESC     LIMIT 5 
    OFFSET 0
 --> Execution Time: 0.0015180110931396, Seconds : 1.5180110931396
administrator - Tanggal/Waktu : 07-Aug-2021/09:01:44 AM => 
 --> 
    SELECT ro.* 
    FROM retur_order ro 
    JOIN `order` o on o.id = ro.id 
    JOIN ( 
    SELECT max( id)  id, `order` 
    FROM order_status 
    GROUP     BY `order`)  oss on oss.order = o.id 
    JOIN order_status os on os.id = oss.id 
    WHERE ro.deleted = 0 
    AND os.status = 'DRAFT' 
    AND ro.deleted = 0 
    ORDER     BY ro.id 
    DESC     LIMIT 5 
    OFFSET 0
 --> Execution Time: 0.00077915191650391, Seconds : 0.77915191650391
