
----------../modules/template/controllers/produk/detail----------
admin - Tanggal/Waktu : 08-Aug-2021/13:06:55 PM => 
 --> 
    SELECT `r`.*, `kr`.`kategori` as `product_kategori`, `tr`.`tipe` 
    FROM `product` `r` 
    JOIN `kategori_product` `kr` ON `r`.`kategori_product` = `kr`.`id` 
    JOIN `tipe_product` `tr` ON `r`.`tipe_product` = `tr`.`id` 
    WHERE `r`.`id` = '1' 
    LIMIT 1000
 --> Execution Time: 0.00078892707824707, Seconds : 0.78892707824707
admin - Tanggal/Waktu : 08-Aug-2021/13:06:55 PM => 
 --> 
    SELECT * 
    FROM `tipe_product` 
    WHERE `deleted` 
    IS     NULL     OR `deleted` =0 
    LIMIT 1000
 --> Execution Time: 0.00056600570678711, Seconds : 0.56600570678711
admin - Tanggal/Waktu : 08-Aug-2021/13:06:55 PM => 
 --> 
    SELECT * 
    FROM `kategori_product` 
    WHERE `deleted` 
    IS     NULL     OR `deleted` =0 
    LIMIT 1000
 --> Execution Time: 0.00085115432739258, Seconds : 0.85115432739258
admin - Tanggal/Waktu : 08-Aug-2021/13:06:55 PM => 
 --> 
    SELECT * 
    FROM `ansuran` 
    WHERE `deleted` 
    IS     NULL     OR `deleted` =0 
    LIMIT 1000
 --> Execution Time: 0.0012259483337402, Seconds : 1.2259483337402
admin - Tanggal/Waktu : 08-Aug-2021/13:06:55 PM => 
 --> 
    SELECT * 
    FROM `product_has_foto` 
    WHERE `product` = '1' 
    AND `status` 
    IS     NULL     LIMIT 1000
 --> Execution Time: 0.0036070346832275, Seconds : 3.6070346832275
admin - Tanggal/Waktu : 08-Aug-2021/13:06:55 PM => 
 --> 
    SELECT * 
    FROM `general` 
    LIMIT 1000
 --> Execution Time: 0.00043582916259766, Seconds : 0.43582916259766
admin - Tanggal/Waktu : 08-Aug-2021/13:06:55 PM => 
 --> 
    SELECT i.* 
    FROM invoice i 
    JOIN ( 
    SELECT max( id)  id, invoice 
    FROM invoice_status 
    GROUP     BY invoice)  iss on iss.invoice = i.id 
    JOIN invoice_status isa on isa.id = iss.id 
    WHERE isa.status = 'DRAFT' 
    AND i.deleted = 0 
    ORDER     BY i.id 
    DESC     LIMIT 5 
    OFFSET 0
 --> Execution Time: 0.0008089542388916, Seconds : 0.8089542388916
admin - Tanggal/Waktu : 08-Aug-2021/13:06:55 PM => 
 --> 
    SELECT o.* 
    FROM `order` o 
    JOIN ( 
    SELECT max( id)  id, `order` 
    FROM order_status 
    GROUP     BY `order`)  oss on oss.order = o.id 
    JOIN order_status os on os.id = oss.id 
    WHERE os.status = 'DRAFT' 
    AND o.deleted = 0 
    ORDER     BY o.id 
    DESC     LIMIT 5 
    OFFSET 0
 --> Execution Time: 0.00073504447937012, Seconds : 0.73504447937012
admin - Tanggal/Waktu : 08-Aug-2021/13:06:55 PM => 
 --> 
    SELECT ro.* 
    FROM retur_order ro 
    JOIN `order` o on o.id = ro.id 
    JOIN ( 
    SELECT max( id)  id, `order` 
    FROM order_status 
    GROUP     BY `order`)  oss on oss.order = o.id 
    JOIN order_status os on os.id = oss.id 
    WHERE ro.deleted = 0 
    AND os.status = 'DRAFT' 
    AND ro.deleted = 0 
    ORDER     BY ro.id 
    DESC     LIMIT 5 
    OFFSET 0
 --> Execution Time: 0.00077486038208008, Seconds : 0.77486038208008
