
----------../modules/order/controllers/order/chooseProduk----------
admin - Tanggal/Waktu : 08-Aug-2021/15:57:05 PM => 
 --> 
    SELECT ps.* , s.nama_satuan , ps.qty as konversi , ps.ket_harga as keterangan 
    FROM product_satuan ps 
    JOIN satuan s on s.id = ps.satuan 
    WHERE ps.product = 967 
    AND ps.deleted = 0
 --> Execution Time: 0.00062799453735352, Seconds : 0.62799453735352
admin - Tanggal/Waktu : 08-Aug-2021/15:57:05 PM => 
 --> 
    SELECT ps.* , s.nama_satuan , ps.qty as konversi , ps.ket_harga as keterangan 
    FROM product_satuan ps 
    JOIN satuan s on s.id = ps.satuan 
    WHERE ps.product = 967 
    AND ps.deleted = 0 
    AND ps.satuan_terkecil = 1
 --> Execution Time: 0.00049996376037598, Seconds : 0.49996376037598
