
----------../modules/database/controllers/satuan/ubahHargaJual----------
administrator - Tanggal/Waktu : 07-Aug-2021/08:49:28 AM => 
 --> 
    SELECT `hg`.* 
    FROM `product_has_harga_jual` `hg` 
    WHERE `hg`.`product_satuan` = '6' 
    ORDER     BY `hg`.`id` 
    DESC     LIMIT 1000
 --> Execution Time: 0.00085210800170898, Seconds : 0.85210800170898
