
----------../modules/database/controllers/login/index----------
 - Tanggal/Waktu : 20-Oct-2021/17:34:51 PM => 
 --> 
    SELECT * 
    FROM `general` 
    LIMIT 1000
 --> Execution Time: 0.0076930522918701, Seconds : 7.6930522918701
