
----------../modules/template/controllers/produk/add----------
admin - Tanggal/Waktu : 01-Nov-2021/19:51:54 PM => 
 --> 
    SELECT * 
    FROM `tipe_product` 
    WHERE `deleted` 
    IS     NULL     OR `deleted` =0 
    LIMIT 1000
 --> Execution Time: 0.0012960433959961, Seconds : 1.2960433959961
admin - Tanggal/Waktu : 01-Nov-2021/19:51:54 PM => 
 --> 
    SELECT * 
    FROM `kategori_product` 
    WHERE `deleted` 
    IS     NULL     OR `deleted` =0 
    LIMIT 1000
 --> Execution Time: 0.00062394142150879, Seconds : 0.62394142150879
admin - Tanggal/Waktu : 01-Nov-2021/19:51:54 PM => 
 --> 
    SELECT * 
    FROM `general` 
    LIMIT 1000
 --> Execution Time: 0.0011179447174072, Seconds : 1.1179447174072
admin - Tanggal/Waktu : 01-Nov-2021/19:51:54 PM => 
 --> 
    SELECT i.* 
    FROM invoice i 
    JOIN ( 
    SELECT max( id)  id, invoice 
    FROM invoice_status 
    GROUP     BY invoice)  iss on iss.invoice = i.id 
    JOIN invoice_status isa on isa.id = iss.id 
    WHERE isa.status = 'DRAFT' 
    AND i.deleted = 0 
    ORDER     BY i.id 
    DESC     LIMIT 5 
    OFFSET 0
 --> Execution Time: 0.0010149478912354, Seconds : 1.0149478912354
admin - Tanggal/Waktu : 01-Nov-2021/19:51:54 PM => 
 --> 
    SELECT o.* 
    FROM `order` o 
    JOIN ( 
    SELECT max( id)  id, `order` 
    FROM order_status 
    GROUP     BY `order`)  oss on oss.order = o.id 
    JOIN order_status os on os.id = oss.id 
    WHERE os.status = 'DRAFT' 
    AND o.deleted = 0 
    ORDER     BY o.id 
    DESC     LIMIT 5 
    OFFSET 0
 --> Execution Time: 0.0011429786682129, Seconds : 1.1429786682129
admin - Tanggal/Waktu : 01-Nov-2021/19:51:54 PM => 
 --> 
    SELECT ro.* 
    FROM retur_order ro 
    JOIN `order` o on o.id = ro.id 
    JOIN ( 
    SELECT max( id)  id, `order` 
    FROM order_status 
    GROUP     BY `order`)  oss on oss.order = o.id 
    JOIN order_status os on os.id = oss.id 
    WHERE ro.deleted = 0 
    AND os.status = 'DRAFT' 
    AND ro.deleted = 0 
    ORDER     BY ro.id 
    DESC     LIMIT 5 
    OFFSET 0
 --> Execution Time: 0.00082707405090332, Seconds : 0.82707405090332
