
----------../modules/template/controllers/lappembelian/index----------
administrator - Tanggal/Waktu : 01-Aug-2021/09:57:37 AM => 
 --> 
    SELECT `p`.*, `v`.`nama_vendor`, `pi`.`harga`, `pi`.`qty`, `s`.`nama_satuan`, `pd`.`product` 
    FROM `procurement` `p` 
    JOIN `vendor` `v` ON `v`.`id` = `p`.`vendor` 
    JOIN `procurement_item` `pi` ON `pi`.`procurement` = `p`.`id` 
    JOIN `product` `pd` ON `pd`.`id` = `pi`.`product` 
    JOIN `satuan` `s` ON `s`.`id` = `pi`.`satuan` 
    WHERE `p`.`deleted` 
    IS     NULL     OR `p`.`deleted` =0 
    ORDER     BY `p`.`id` 
    DESC     LIMIT 1, 1
 --> Execution Time: 0.00089883804321289, Seconds : 0.89883804321289
administrator - Tanggal/Waktu : 01-Aug-2021/09:57:37 AM => 
 --> 
    SELECT COUNT( *)  AS `numrows` 
    FROM `procurement` `p` 
    JOIN `vendor` `v` ON `v`.`id` = `p`.`vendor` 
    JOIN `procurement_item` `pi` ON `pi`.`procurement` = `p`.`id` 
    JOIN `product` `pd` ON `pd`.`id` = `pi`.`product` 
    JOIN `satuan` `s` ON `s`.`id` = `pi`.`satuan` 
    WHERE `p`.`deleted` 
    IS     NULL     OR `p`.`deleted` =0
 --> Execution Time: 0.0016109943389893, Seconds : 1.6109943389893
administrator - Tanggal/Waktu : 01-Aug-2021/09:57:37 AM => 
 --> 
    SELECT * 
    FROM `general` 
    LIMIT 1000
 --> Execution Time: 0.00042200088500977, Seconds : 0.42200088500977
administrator - Tanggal/Waktu : 01-Aug-2021/09:57:37 AM => 
 --> 
    SELECT i.* 
    FROM invoice i 
    JOIN ( 
    SELECT max( id)  id, invoice 
    FROM invoice_status 
    GROUP     BY invoice)  iss on iss.invoice = i.id 
    JOIN invoice_status isa on isa.id = iss.id 
    WHERE isa.status = 'DRAFT' 
    AND i.deleted = 0 
    ORDER     BY i.id 
    DESC     LIMIT 5 
    OFFSET 0
 --> Execution Time: 0.00085902214050293, Seconds : 0.85902214050293
administrator - Tanggal/Waktu : 01-Aug-2021/09:57:37 AM => 
 --> 
    SELECT o.* 
    FROM `order` o 
    JOIN ( 
    SELECT max( id)  id, `order` 
    FROM order_status 
    GROUP     BY `order`)  oss on oss.order = o.id 
    JOIN order_status os on os.id = oss.id 
    WHERE os.status = 'DRAFT' 
    AND o.deleted = 0 
    ORDER     BY o.id 
    DESC     LIMIT 5 
    OFFSET 0
 --> Execution Time: 0.0011491775512695, Seconds : 1.1491775512695
administrator - Tanggal/Waktu : 01-Aug-2021/09:57:37 AM => 
 --> 
    SELECT ro.* 
    FROM retur_order ro 
    JOIN `order` o on o.id = ro.id 
    JOIN ( 
    SELECT max( id)  id, `order` 
    FROM order_status 
    GROUP     BY `order`)  oss on oss.order = o.id 
    JOIN order_status os on os.id = oss.id 
    WHERE ro.deleted = 0 
    AND os.status = 'DRAFT' 
    AND ro.deleted = 0 
    ORDER     BY ro.id 
    DESC     LIMIT 5 
    OFFSET 0
 --> Execution Time: 0.00061511993408203, Seconds : 0.61511993408203
