
----------../modules/database/controllers/login/index----------
administrator - Tanggal/Waktu : 08-Aug-2021/12:53:54 PM => 
 --> 
    SELECT * 
    FROM `general` 
    LIMIT 1000
 --> Execution Time: 0.0005180835723877, Seconds : 0.5180835723877
