
----------../modules/database/controllers/login/sign_in----------
administrator - Tanggal/Waktu : 08-Aug-2021/12:53:19 PM => 
 --> 
    SELECT `u`.*, `p`.`hak_akses` 
    FROM `user` `u` 
    JOIN `priveledge` `p` ON `u`.`priveledge` = `p`.`id` 
    WHERE `u`.`username` = 'admin' 
    AND `u`.`password` = '21232f297a57a5a743894a0e4a801fc3' 
    AND ( `u`.`deleted` =0 
    OR `u`.`deleted` 
    IS     NULL)  
    LIMIT 1000
 --> Execution Time: 0.00090217590332031, Seconds : 0.90217590332031
