
----------../modules/order/controllers/order/chooseProduk----------
admin - Tanggal/Waktu : 17-Aug-2021/07:53:17 AM => 
 --> 
    SELECT ps.* , s.nama_satuan , ps.qty as konversi , ps.ket_harga as keterangan 
    FROM product_satuan ps 
    JOIN satuan s on s.id = ps.satuan 
    WHERE ps.product = 1677 
    AND ps.deleted = 0
 --> Execution Time: 0.00079584121704102, Seconds : 0.79584121704102
admin - Tanggal/Waktu : 17-Aug-2021/07:53:17 AM => 
 --> 
    SELECT ps.* , s.nama_satuan , ps.qty as konversi , ps.ket_harga as keterangan 
    FROM product_satuan ps 
    JOIN satuan s on s.id = ps.satuan 
    WHERE ps.product = 1677 
    AND ps.deleted = 0 
    AND ps.satuan_terkecil = 1
 --> Execution Time: 0.00059986114501953, Seconds : 0.59986114501953
