
----------../modules/database/controllers/login/index----------
admin - Tanggal/Waktu : 06-Aug-2021/10:17:20 AM => 
 --> 
    SELECT * 
    FROM `general` 
    LIMIT 1000
 --> Execution Time: 0.0034999847412109, Seconds : 3.4999847412109

----------../modules/database/controllers/login/index----------
admin - Tanggal/Waktu : 06-Aug-2021/10:17:20 AM => 
 --> 
    SELECT * 
    FROM `general` 
    LIMIT 1000
 --> Execution Time: 0.00044989585876465, Seconds : 0.44989585876465
