
----------../modules/template/controllers/order/add----------
administrator - Tanggal/Waktu : 01-Aug-2021/10:11:56 AM => 
 --> 
    SELECT `ps`.*, `p`.`product` as `nama_product`, `s`.`nama_satuan`, `pst`.`stock`, `p`.`kode_product` 
    FROM `product_satuan` `ps` 
    JOIN `product` `p` ON `ps`.`product` = `p`.`id` 
    LEFT     JOIN `satuan` `s` ON `ps`.`satuan` = `s`.`id` 
    JOIN `product_stock` `pst` ON `p`.`id` = `pst`.`product` 
    WHERE `ps`.`deleted` =0 
    OR `ps`.`deleted` 
    IS     NULL     LIMIT 1000
 --> Execution Time: 0.0014219284057617, Seconds : 1.4219284057617
administrator - Tanggal/Waktu : 01-Aug-2021/10:11:56 AM => 
 --> 
    SELECT `p`.* 
    FROM `pembeli` `p` 
    WHERE `p`.`deleted` =0 
    OR `p`.`deleted` 
    IS     NULL     AND `p`.`pembeli_kategori` = 2 
    LIMIT 1000
 --> Execution Time: 0.0016539096832275, Seconds : 1.6539096832275
administrator - Tanggal/Waktu : 01-Aug-2021/10:11:56 AM => 
 --> 
    SELECT * 
    FROM `metode_bayar` 
    LIMIT 1000
 --> Execution Time: 0.00040793418884277, Seconds : 0.40793418884277
administrator - Tanggal/Waktu : 01-Aug-2021/10:11:56 AM => 
 --> 
    SELECT `p`.* 
    FROM `pajak` `p` 
    WHERE `p`.`deleted` =0 
    OR `p`.`deleted` 
    IS     NULL     LIMIT 1000
 --> Execution Time: 0.0005030632019043, Seconds : 0.5030632019043
administrator - Tanggal/Waktu : 01-Aug-2021/10:11:56 AM => 
 --> 
    SELECT * 
    FROM `potongan` 
    ORDER     BY `id` 
    DESC     LIMIT 1000
 --> Execution Time: 0.00063014030456543, Seconds : 0.63014030456543
administrator - Tanggal/Waktu : 01-Aug-2021/10:11:56 AM => 
 --> 
    SELECT p.* , ps.stock 
    FROM product p 
    LEFT     JOIN ( 
    SELECT max( id)  id, product 
    FROM product_stock 
    GROUP     BY product)  ps_max on ps_max.product = p.id 
    LEFT     JOIN product_stock ps on ps.id = ps_max.id 
    LEFT     JOIN product_satuan pst on ps.product_satuan = pst.id 
    LEFT     JOIN satuan s on s.id = pst.satuan 
    WHERE p.deleted = 0 
    AND s.nama_satuan = 'PCS'
 --> Execution Time: 0.0010528564453125, Seconds : 1.0528564453125
administrator - Tanggal/Waktu : 01-Aug-2021/10:11:56 AM => 
 --> 
    SELECT * 
    FROM `general` 
    LIMIT 1000
 --> Execution Time: 0.0003960132598877, Seconds : 0.3960132598877
administrator - Tanggal/Waktu : 01-Aug-2021/10:11:56 AM => 
 --> 
    SELECT i.* 
    FROM invoice i 
    JOIN ( 
    SELECT max( id)  id, invoice 
    FROM invoice_status 
    GROUP     BY invoice)  iss on iss.invoice = i.id 
    JOIN invoice_status isa on isa.id = iss.id 
    WHERE isa.status = 'DRAFT' 
    AND i.deleted = 0 
    ORDER     BY i.id 
    DESC     LIMIT 5 
    OFFSET 0
 --> Execution Time: 0.00092983245849609, Seconds : 0.92983245849609
administrator - Tanggal/Waktu : 01-Aug-2021/10:11:56 AM => 
 --> 
    SELECT o.* 
    FROM `order` o 
    JOIN ( 
    SELECT max( id)  id, `order` 
    FROM order_status 
    GROUP     BY `order`)  oss on oss.order = o.id 
    JOIN order_status os on os.id = oss.id 
    WHERE os.status = 'DRAFT' 
    AND o.deleted = 0 
    ORDER     BY o.id 
    DESC     LIMIT 5 
    OFFSET 0
 --> Execution Time: 0.0012009143829346, Seconds : 1.2009143829346
administrator - Tanggal/Waktu : 01-Aug-2021/10:11:56 AM => 
 --> 
    SELECT ro.* 
    FROM retur_order ro 
    JOIN `order` o on o.id = ro.id 
    JOIN ( 
    SELECT max( id)  id, `order` 
    FROM order_status 
    GROUP     BY `order`)  oss on oss.order = o.id 
    JOIN order_status os on os.id = oss.id 
    WHERE ro.deleted = 0 
    AND os.status = 'DRAFT' 
    AND ro.deleted = 0 
    ORDER     BY ro.id 
    DESC     LIMIT 5 
    OFFSET 0
 --> Execution Time: 0.00074601173400879, Seconds : 0.74601173400879
