
----------../modules/template/controllers/order/add----------
admin - Tanggal/Waktu : 17-Aug-2021/07:56:00 AM => 
 --> 
    SELECT `p`.* 
    FROM `pembeli` `p` 
    WHERE `p`.`deleted` =0 
    OR `p`.`deleted` 
    IS     NULL     AND `p`.`pembeli_kategori` = 2 
    LIMIT 1000
 --> Execution Time: 0.00078010559082031, Seconds : 0.78010559082031
admin - Tanggal/Waktu : 17-Aug-2021/07:56:00 AM => 
 --> 
    SELECT * 
    FROM `metode_bayar` 
    LIMIT 1000
 --> Execution Time: 0.00046014785766602, Seconds : 0.46014785766602
admin - Tanggal/Waktu : 17-Aug-2021/07:56:00 AM => 
 --> 
    SELECT `p`.* 
    FROM `pajak` `p` 
    WHERE `p`.`deleted` =0 
    OR `p`.`deleted` 
    IS     NULL     LIMIT 1000
 --> Execution Time: 0.00054597854614258, Seconds : 0.54597854614258
admin - Tanggal/Waktu : 17-Aug-2021/07:56:00 AM => 
 --> 
    SELECT * 
    FROM `potongan` 
    ORDER     BY `id` 
    DESC     LIMIT 1000
 --> Execution Time: 0.00044512748718262, Seconds : 0.44512748718262
admin - Tanggal/Waktu : 17-Aug-2021/07:56:00 AM => 
 --> 
    SELECT p.* , ps.stock 
    FROM product p 
    LEFT     JOIN ( 
    SELECT max( id)  id, product 
    FROM product_stock 
    GROUP     BY product)  ps_max on ps_max.product = p.id 
    LEFT     JOIN product_stock ps on ps.id = ps_max.id 
    LEFT     JOIN product_satuan pst on ps.product_satuan = pst.id 
    LEFT     JOIN satuan s on s.id = pst.satuan 
    WHERE p.deleted = 0 
    AND pst.satuan_terkecil = 1
 --> Execution Time: 0.019150018692017, Seconds : 19.150018692017
admin - Tanggal/Waktu : 17-Aug-2021/07:56:00 AM => 
 --> 
    SELECT * 
    FROM `general` 
    LIMIT 1000
 --> Execution Time: 0.00072693824768066, Seconds : 0.72693824768066
admin - Tanggal/Waktu : 17-Aug-2021/07:56:00 AM => 
 --> 
    SELECT i.* 
    FROM invoice i 
    JOIN ( 
    SELECT max( id)  id, invoice 
    FROM invoice_status 
    GROUP     BY invoice)  iss on iss.invoice = i.id 
    JOIN invoice_status isa on isa.id = iss.id 
    WHERE isa.status = 'DRAFT' 
    AND i.deleted = 0 
    ORDER     BY i.id 
    DESC     LIMIT 5 
    OFFSET 0
 --> Execution Time: 0.0011727809906006, Seconds : 1.1727809906006
admin - Tanggal/Waktu : 17-Aug-2021/07:56:00 AM => 
 --> 
    SELECT o.* 
    FROM `order` o 
    JOIN ( 
    SELECT max( id)  id, `order` 
    FROM order_status 
    GROUP     BY `order`)  oss on oss.order = o.id 
    JOIN order_status os on os.id = oss.id 
    WHERE os.status = 'DRAFT' 
    AND o.deleted = 0 
    ORDER     BY o.id 
    DESC     LIMIT 5 
    OFFSET 0
 --> Execution Time: 0.0010020732879639, Seconds : 1.0020732879639
admin - Tanggal/Waktu : 17-Aug-2021/07:56:00 AM => 
 --> 
    SELECT ro.* 
    FROM retur_order ro 
    JOIN `order` o on o.id = ro.id 
    JOIN ( 
    SELECT max( id)  id, `order` 
    FROM order_status 
    GROUP     BY `order`)  oss on oss.order = o.id 
    JOIN order_status os on os.id = oss.id 
    WHERE ro.deleted = 0 
    AND os.status = 'DRAFT' 
    AND ro.deleted = 0 
    ORDER     BY ro.id 
    DESC     LIMIT 5 
    OFFSET 0
 --> Execution Time: 0.00092101097106934, Seconds : 0.92101097106934
