
----------../modules/database/controllers/login/index----------
 - Tanggal/Waktu : 23-Aug-2021/08:17:41 AM => 
 --> 
    SELECT * 
    FROM `general` 
    LIMIT 1000
 --> Execution Time: 0.0006711483001709, Seconds : 0.6711483001709
