
----------../modules/template/controllers/product_stock/detail----------
administrator - Tanggal/Waktu : 07-Aug-2021/09:45:46 AM => 
 --> 
    SELECT `kr`.*, `p`.`product` as `nama_product`, `ps`.`satuan`, `ps`.`product`, `r`.`nama_rak`, `g`.`nama_gudang`, `s`.`nama_satuan`, `sp`.`nama_satuan` as `satuan_parent` 
    FROM `product_stock` `kr` 
    JOIN `product_satuan` `ps` ON `kr`.`product_satuan` = `ps`.`id` 
    JOIN `product` `p` ON `ps`.`product` = `p`.`id` 
    LEFT     JOIN `gudang` `g` ON `kr`.`gudang` = `g`.`id` 
    LEFT     JOIN `rak` `r` ON `kr`.`rak` = `r`.`id` 
    LEFT     JOIN `satuan` `s` ON `s`.`id` = `ps`.`satuan` 
    LEFT     JOIN `satuan` `sp` ON `sp`.`id` = `s`.`parent` 
    WHERE `kr`.`id` = '26' 
    LIMIT 1000
 --> Execution Time: 0.00088381767272949, Seconds : 0.88381767272949
administrator - Tanggal/Waktu : 07-Aug-2021/09:45:46 AM => 
 --> 
    SELECT `pls`.* 
    FROM `product_log_stock` `pls` 
    JOIN `product_satuan` `ps` ON `ps`.`id` = `pls`.`product_satuan` 
    JOIN `product` `p` ON `p`.`id` = `ps`.`product` 
    WHERE `pls`.`deleted` =0 
    AND `p`.`id` = '3160' 
    ORDER     BY `pls`.`id` 
    DESC     LIMIT 1000
 --> Execution Time: 0.00093412399291992, Seconds : 0.93412399291992
administrator - Tanggal/Waktu : 07-Aug-2021/09:45:46 AM => 
 --> 
    SELECT * 
    FROM `general` 
    LIMIT 1000
 --> Execution Time: 0.0019071102142334, Seconds : 1.9071102142334
administrator - Tanggal/Waktu : 07-Aug-2021/09:45:46 AM => 
 --> 
    SELECT i.* 
    FROM invoice i 
    JOIN ( 
    SELECT max( id)  id, invoice 
    FROM invoice_status 
    GROUP     BY invoice)  iss on iss.invoice = i.id 
    JOIN invoice_status isa on isa.id = iss.id 
    WHERE isa.status = 'DRAFT' 
    AND i.deleted = 0 
    ORDER     BY i.id 
    DESC     LIMIT 5 
    OFFSET 0
 --> Execution Time: 0.0011100769042969, Seconds : 1.1100769042969
administrator - Tanggal/Waktu : 07-Aug-2021/09:45:46 AM => 
 --> 
    SELECT o.* 
    FROM `order` o 
    JOIN ( 
    SELECT max( id)  id, `order` 
    FROM order_status 
    GROUP     BY `order`)  oss on oss.order = o.id 
    JOIN order_status os on os.id = oss.id 
    WHERE os.status = 'DRAFT' 
    AND o.deleted = 0 
    ORDER     BY o.id 
    DESC     LIMIT 5 
    OFFSET 0
 --> Execution Time: 0.0013589859008789, Seconds : 1.3589859008789
administrator - Tanggal/Waktu : 07-Aug-2021/09:45:46 AM => 
 --> 
    SELECT ro.* 
    FROM retur_order ro 
    JOIN `order` o on o.id = ro.id 
    JOIN ( 
    SELECT max( id)  id, `order` 
    FROM order_status 
    GROUP     BY `order`)  oss on oss.order = o.id 
    JOIN order_status os on os.id = oss.id 
    WHERE ro.deleted = 0 
    AND os.status = 'DRAFT' 
    AND ro.deleted = 0 
    ORDER     BY ro.id 
    DESC     LIMIT 5 
    OFFSET 0
 --> Execution Time: 0.00070095062255859, Seconds : 0.70095062255859
