
----------../modules/database/controllers/login/index----------
administrator - Tanggal/Waktu : 08-Aug-2021/12:53:08 PM => 
 --> 
    SELECT * 
    FROM `general` 
    LIMIT 1000
 --> Execution Time: 0.0018510818481445, Seconds : 1.8510818481445
