
----------../modules/template/controllers/tipe_produk/index----------
administrator - Tanggal/Waktu : 31-Jul-2021/18:54:58 PM => 
 --> 
    SELECT `tr`.* 
    FROM `tipe_product` `tr` 
    WHERE `tr`.`deleted` 
    IS     NULL     OR `tr`.`deleted` =0 
    LIMIT 10
 --> Execution Time: 0.0024828910827637, Seconds : 2.4828910827637
administrator - Tanggal/Waktu : 31-Jul-2021/18:54:58 PM => 
 --> 
    SELECT COUNT( *)  AS `numrows` 
    FROM `tipe_product` `tr` 
    WHERE `tr`.`deleted` 
    IS     NULL     OR `tr`.`deleted` =0
 --> Execution Time: 0.00037598609924316, Seconds : 0.37598609924316
administrator - Tanggal/Waktu : 31-Jul-2021/18:54:58 PM => 
 --> 
    SELECT * 
    FROM `general` 
    LIMIT 1000
 --> Execution Time: 0.00040388107299805, Seconds : 0.40388107299805
administrator - Tanggal/Waktu : 31-Jul-2021/18:54:58 PM => 
 --> 
    SELECT i.* 
    FROM invoice i 
    JOIN ( 
    SELECT max( id)  id, invoice 
    FROM invoice_status 
    GROUP     BY invoice)  iss on iss.invoice = i.id 
    JOIN invoice_status isa on isa.id = iss.id 
    WHERE isa.status = 'DRAFT' 
    AND i.deleted = 0 
    ORDER     BY i.id 
    DESC     LIMIT 5 
    OFFSET 0
 --> Execution Time: 0.00087094306945801, Seconds : 0.87094306945801
administrator - Tanggal/Waktu : 31-Jul-2021/18:54:58 PM => 
 --> 
    SELECT o.* 
    FROM `order` o 
    JOIN ( 
    SELECT max( id)  id, `order` 
    FROM order_status 
    GROUP     BY `order`)  oss on oss.order = o.id 
    JOIN order_status os on os.id = oss.id 
    WHERE os.status = 'DRAFT' 
    AND o.deleted = 0 
    ORDER     BY o.id 
    DESC     LIMIT 5 
    OFFSET 0
 --> Execution Time: 0.0012521743774414, Seconds : 1.2521743774414
administrator - Tanggal/Waktu : 31-Jul-2021/18:54:58 PM => 
 --> 
    SELECT ro.* 
    FROM retur_order ro 
    JOIN `order` o on o.id = ro.id 
    JOIN ( 
    SELECT max( id)  id, `order` 
    FROM order_status 
    GROUP     BY `order`)  oss on oss.order = o.id 
    JOIN order_status os on os.id = oss.id 
    WHERE ro.deleted = 0 
    AND os.status = 'DRAFT' 
    AND ro.deleted = 0 
    ORDER     BY ro.id 
    DESC     LIMIT 5 
    OFFSET 0
 --> Execution Time: 0.00067591667175293, Seconds : 0.67591667175293
