
----------../modules/template/controllers/dashboard/index----------
administrator - Tanggal/Waktu : 07-Aug-2021/08:29:48 AM => 
 --> 
    SELECT `i`.*, `p`.`nama` as `nama_pembeli`, `p`.`no_hp`, `p`.`alamat`, `isa`.`status` 
    FROM `invoice` `i` 
    JOIN `pembeli` `p` ON `i`.`pembeli` = `p`.`id` 
    JOIN ( 
    SELECT max( id)  id, invoice 
    FROM invoice_status 
    GROUP     BY invoice)  iss ON `i`.`id` = `iss`.`invoice` 
    JOIN `invoice_status` `isa` ON `isa`.`id`= `iss`.`id` 
    WHERE `i`.`deleted` =0 
    ORDER     BY `i`.`id` 
    DESC     LIMIT 5
 --> Execution Time: 0.0017108917236328, Seconds : 1.7108917236328
administrator - Tanggal/Waktu : 07-Aug-2021/08:29:48 AM => 
 --> 
    SELECT sum( total)  as total 
    FROM invoice 
    WHERE tanggal_faktur 
    LIKE '%2021%' 
    AND deleted = 0 
    LIMIT 1000 
    OFFSET 0
 --> Execution Time: 0.00070500373840332, Seconds : 0.70500373840332
administrator - Tanggal/Waktu : 07-Aug-2021/08:29:48 AM => 
 --> 
    SELECT count( *)  as jumlah 
    FROM invoice 
    WHERE tanggal_faktur 
    LIKE '%2021%' 
    AND deleted = 0 
    LIMIT 1000 
    OFFSET 0
 --> Execution Time: 0.00063610076904297, Seconds : 0.63610076904297
administrator - Tanggal/Waktu : 07-Aug-2021/08:29:48 AM => 
 --> 
    SELECT sum( i.total)  as total 
    FROM invoice i 
    JOIN ( 
    SELECT max( id)  id, invoice 
    FROM invoice_status 
    GROUP     BY invoice)  iss on iss.invoice = i.id 
    JOIN invoice_status isa on isa.id = iss.id 
    WHERE isa.status = 'PAID' 
    AND i.tanggal_faktur 
    LIKE '%2021%' 
    AND i.deleted = 0 
    LIMIT 1000 
    OFFSET 0
 --> Execution Time: 0.001194953918457, Seconds : 1.194953918457
administrator - Tanggal/Waktu : 07-Aug-2021/08:29:48 AM => 
 --> 
    SELECT pt.total , QUARTER( pt.createddate)  AS quartal 
    FROM pembayaran_tagihan pt 
    WHERE pt.createddate 
    LIKE '%2021%' 
    LIMIT 1000 
    OFFSET 0
 --> Execution Time: 0.00068879127502441, Seconds : 0.68879127502441
administrator - Tanggal/Waktu : 07-Aug-2021/08:29:48 AM => 
 --> 
    SELECT pv.total , QUARTER( pv.createddate)  AS quartal 
    FROM pembayaran_vendor pv 
    WHERE pv.createddate 
    LIKE '%2021%' 
    LIMIT 1000 
    OFFSET 0
 --> Execution Time: 0.0012187957763672, Seconds : 1.2187957763672
administrator - Tanggal/Waktu : 07-Aug-2021/08:29:48 AM => 
 --> 
    SELECT pl.total , QUARTER( pl.createddate)  AS quartal 
    FROM pembayaran_lain_lain pl 
    WHERE pl.createddate 
    LIKE '%2021%' 
    LIMIT 1000 
    OFFSET 0
 --> Execution Time: 0.00067400932312012, Seconds : 0.67400932312012
administrator - Tanggal/Waktu : 07-Aug-2021/08:29:48 AM => 
 --> 
    SELECT * 
    FROM `product` 
    LIMIT 1000
 --> Execution Time: 0.0023150444030762, Seconds : 2.3150444030762
administrator - Tanggal/Waktu : 07-Aug-2021/08:29:48 AM => 
 --> 
    SELECT * 
    FROM `pembeli` 
    LIMIT 1000
 --> Execution Time: 0.00062203407287598, Seconds : 0.62203407287598
administrator - Tanggal/Waktu : 07-Aug-2021/08:29:48 AM => 
 --> 
    SELECT * 
    FROM `user` 
    LIMIT 1000
 --> Execution Time: 0.00068497657775879, Seconds : 0.68497657775879
administrator - Tanggal/Waktu : 07-Aug-2021/08:29:48 AM => 
 --> 
    SELECT * 
    FROM invoice 
    WHERE createddate 
    LIKE '%2021-01%' 
    AND deleted = 0 
    LIMIT 1000 
    OFFSET 0
 --> Execution Time: 0.0006721019744873, Seconds : 0.6721019744873
administrator - Tanggal/Waktu : 07-Aug-2021/08:29:48 AM => 
 --> 
    SELECT * 
    FROM invoice 
    WHERE createddate 
    LIKE '%2021-02%' 
    AND deleted = 0 
    LIMIT 1000 
    OFFSET 0
 --> Execution Time: 0.00064706802368164, Seconds : 0.64706802368164
administrator - Tanggal/Waktu : 07-Aug-2021/08:29:48 AM => 
 --> 
    SELECT * 
    FROM invoice 
    WHERE createddate 
    LIKE '%2021-03%' 
    AND deleted = 0 
    LIMIT 1000 
    OFFSET 0
 --> Execution Time: 0.00068187713623047, Seconds : 0.68187713623047
administrator - Tanggal/Waktu : 07-Aug-2021/08:29:48 AM => 
 --> 
    SELECT * 
    FROM invoice 
    WHERE createddate 
    LIKE '%2021-04%' 
    AND deleted = 0 
    LIMIT 1000 
    OFFSET 0
 --> Execution Time: 0.00065493583679199, Seconds : 0.65493583679199
administrator - Tanggal/Waktu : 07-Aug-2021/08:29:48 AM => 
 --> 
    SELECT * 
    FROM invoice 
    WHERE createddate 
    LIKE '%2021-05%' 
    AND deleted = 0 
    LIMIT 1000 
    OFFSET 0
 --> Execution Time: 0.0023269653320312, Seconds : 2.3269653320312
administrator - Tanggal/Waktu : 07-Aug-2021/08:29:48 AM => 
 --> 
    SELECT * 
    FROM invoice 
    WHERE createddate 
    LIKE '%2021-06%' 
    AND deleted = 0 
    LIMIT 1000 
    OFFSET 0
 --> Execution Time: 0.00074005126953125, Seconds : 0.74005126953125
administrator - Tanggal/Waktu : 07-Aug-2021/08:29:48 AM => 
 --> 
    SELECT * 
    FROM invoice 
    WHERE createddate 
    LIKE '%2021-07%' 
    AND deleted = 0 
    LIMIT 1000 
    OFFSET 0
 --> Execution Time: 0.00071096420288086, Seconds : 0.71096420288086
administrator - Tanggal/Waktu : 07-Aug-2021/08:29:48 AM => 
 --> 
    SELECT * 
    FROM invoice 
    WHERE createddate 
    LIKE '%2021-08%' 
    AND deleted = 0 
    LIMIT 1000 
    OFFSET 0
 --> Execution Time: 0.00061607360839844, Seconds : 0.61607360839844
administrator - Tanggal/Waktu : 07-Aug-2021/08:29:48 AM => 
 --> 
    SELECT * 
    FROM invoice 
    WHERE createddate 
    LIKE '%2021-09%' 
    AND deleted = 0 
    LIMIT 1000 
    OFFSET 0
 --> Execution Time: 0.00050711631774902, Seconds : 0.50711631774902
administrator - Tanggal/Waktu : 07-Aug-2021/08:29:48 AM => 
 --> 
    SELECT * 
    FROM invoice 
    WHERE createddate 
    LIKE '%2021-10%' 
    AND deleted = 0 
    LIMIT 1000 
    OFFSET 0
 --> Execution Time: 0.00049614906311035, Seconds : 0.49614906311035
administrator - Tanggal/Waktu : 07-Aug-2021/08:29:48 AM => 
 --> 
    SELECT * 
    FROM invoice 
    WHERE createddate 
    LIKE '%2021-11%' 
    AND deleted = 0 
    LIMIT 1000 
    OFFSET 0
 --> Execution Time: 0.00047206878662109, Seconds : 0.47206878662109
administrator - Tanggal/Waktu : 07-Aug-2021/08:29:48 AM => 
 --> 
    SELECT js.id, c.keterangan , ct.jenis 
    FROM jurnal_detail jd 
    JOIN jurnal_struktur js on jd.jurnal_struktur = js.id 
    JOIN feature f on js.feature = f.id 
    JOIN coa c on c.id = js.coa 
    JOIN coa_type ct on ct.id = js.coa_type 
    WHERE c.keterangan = 'Bank & Kas' 
    AND jd.deleted = 0 
    AND jd.createddate 
    LIKE '%2021-01%' 
    AND ct.jenis = 'KREDIT' 
    LIMIT 1000 
    OFFSET 0
 --> Execution Time: 0.0013909339904785, Seconds : 1.3909339904785
administrator - Tanggal/Waktu : 07-Aug-2021/08:29:48 AM => 
 --> 
    SELECT js.id, c.keterangan , ct.jenis 
    FROM jurnal_detail jd 
    JOIN jurnal_struktur js on jd.jurnal_struktur = js.id 
    JOIN feature f on js.feature = f.id 
    JOIN coa c on c.id = js.coa 
    JOIN coa_type ct on ct.id = js.coa_type 
    WHERE c.keterangan = 'Bank & Kas' 
    AND jd.deleted = 0 
    AND jd.createddate 
    LIKE '%2021-02%' 
    AND ct.jenis = 'KREDIT' 
    LIMIT 1000 
    OFFSET 0
 --> Execution Time: 0.00067496299743652, Seconds : 0.67496299743652
administrator - Tanggal/Waktu : 07-Aug-2021/08:29:48 AM => 
 --> 
    SELECT js.id, c.keterangan , ct.jenis 
    FROM jurnal_detail jd 
    JOIN jurnal_struktur js on jd.jurnal_struktur = js.id 
    JOIN feature f on js.feature = f.id 
    JOIN coa c on c.id = js.coa 
    JOIN coa_type ct on ct.id = js.coa_type 
    WHERE c.keterangan = 'Bank & Kas' 
    AND jd.deleted = 0 
    AND jd.createddate 
    LIKE '%2021-03%' 
    AND ct.jenis = 'KREDIT' 
    LIMIT 1000 
    OFFSET 0
 --> Execution Time: 0.0035359859466553, Seconds : 3.5359859466553
administrator - Tanggal/Waktu : 07-Aug-2021/08:29:48 AM => 
 --> 
    SELECT js.id, c.keterangan , ct.jenis 
    FROM jurnal_detail jd 
    JOIN jurnal_struktur js on jd.jurnal_struktur = js.id 
    JOIN feature f on js.feature = f.id 
    JOIN coa c on c.id = js.coa 
    JOIN coa_type ct on ct.id = js.coa_type 
    WHERE c.keterangan = 'Bank & Kas' 
    AND jd.deleted = 0 
    AND jd.createddate 
    LIKE '%2021-04%' 
    AND ct.jenis = 'KREDIT' 
    LIMIT 1000 
    OFFSET 0
 --> Execution Time: 0.00064682960510254, Seconds : 0.64682960510254
administrator - Tanggal/Waktu : 07-Aug-2021/08:29:48 AM => 
 --> 
    SELECT js.id, c.keterangan , ct.jenis 
    FROM jurnal_detail jd 
    JOIN jurnal_struktur js on jd.jurnal_struktur = js.id 
    JOIN feature f on js.feature = f.id 
    JOIN coa c on c.id = js.coa 
    JOIN coa_type ct on ct.id = js.coa_type 
    WHERE c.keterangan = 'Bank & Kas' 
    AND jd.deleted = 0 
    AND jd.createddate 
    LIKE '%2021-05%' 
    AND ct.jenis = 'KREDIT' 
    LIMIT 1000 
    OFFSET 0
 --> Execution Time: 0.00058579444885254, Seconds : 0.58579444885254
administrator - Tanggal/Waktu : 07-Aug-2021/08:29:48 AM => 
 --> 
    SELECT js.id, c.keterangan , ct.jenis 
    FROM jurnal_detail jd 
    JOIN jurnal_struktur js on jd.jurnal_struktur = js.id 
    JOIN feature f on js.feature = f.id 
    JOIN coa c on c.id = js.coa 
    JOIN coa_type ct on ct.id = js.coa_type 
    WHERE c.keterangan = 'Bank & Kas' 
    AND jd.deleted = 0 
    AND jd.createddate 
    LIKE '%2021-06%' 
    AND ct.jenis = 'KREDIT' 
    LIMIT 1000 
    OFFSET 0
 --> Execution Time: 0.00077104568481445, Seconds : 0.77104568481445
administrator - Tanggal/Waktu : 07-Aug-2021/08:29:48 AM => 
 --> 
    SELECT js.id, c.keterangan , ct.jenis 
    FROM jurnal_detail jd 
    JOIN jurnal_struktur js on jd.jurnal_struktur = js.id 
    JOIN feature f on js.feature = f.id 
    JOIN coa c on c.id = js.coa 
    JOIN coa_type ct on ct.id = js.coa_type 
    WHERE c.keterangan = 'Bank & Kas' 
    AND jd.deleted = 0 
    AND jd.createddate 
    LIKE '%2021-07%' 
    AND ct.jenis = 'KREDIT' 
    LIMIT 1000 
    OFFSET 0
 --> Execution Time: 0.00058603286743164, Seconds : 0.58603286743164
administrator - Tanggal/Waktu : 07-Aug-2021/08:29:48 AM => 
 --> 
    SELECT js.id, c.keterangan , ct.jenis 
    FROM jurnal_detail jd 
    JOIN jurnal_struktur js on jd.jurnal_struktur = js.id 
    JOIN feature f on js.feature = f.id 
    JOIN coa c on c.id = js.coa 
    JOIN coa_type ct on ct.id = js.coa_type 
    WHERE c.keterangan = 'Bank & Kas' 
    AND jd.deleted = 0 
    AND jd.createddate 
    LIKE '%2021-08%' 
    AND ct.jenis = 'KREDIT' 
    LIMIT 1000 
    OFFSET 0
 --> Execution Time: 0.00053501129150391, Seconds : 0.53501129150391
administrator - Tanggal/Waktu : 07-Aug-2021/08:29:48 AM => 
 --> 
    SELECT js.id, c.keterangan , ct.jenis 
    FROM jurnal_detail jd 
    JOIN jurnal_struktur js on jd.jurnal_struktur = js.id 
    JOIN feature f on js.feature = f.id 
    JOIN coa c on c.id = js.coa 
    JOIN coa_type ct on ct.id = js.coa_type 
    WHERE c.keterangan = 'Bank & Kas' 
    AND jd.deleted = 0 
    AND jd.createddate 
    LIKE '%2021-09%' 
    AND ct.jenis = 'KREDIT' 
    LIMIT 1000 
    OFFSET 0
 --> Execution Time: 0.00056695938110352, Seconds : 0.56695938110352
administrator - Tanggal/Waktu : 07-Aug-2021/08:29:48 AM => 
 --> 
    SELECT js.id, c.keterangan , ct.jenis 
    FROM jurnal_detail jd 
    JOIN jurnal_struktur js on jd.jurnal_struktur = js.id 
    JOIN feature f on js.feature = f.id 
    JOIN coa c on c.id = js.coa 
    JOIN coa_type ct on ct.id = js.coa_type 
    WHERE c.keterangan = 'Bank & Kas' 
    AND jd.deleted = 0 
    AND jd.createddate 
    LIKE '%2021-10%' 
    AND ct.jenis = 'KREDIT' 
    LIMIT 1000 
    OFFSET 0
 --> Execution Time: 0.00054001808166504, Seconds : 0.54001808166504
administrator - Tanggal/Waktu : 07-Aug-2021/08:29:48 AM => 
 --> 
    SELECT js.id, c.keterangan , ct.jenis 
    FROM jurnal_detail jd 
    JOIN jurnal_struktur js on jd.jurnal_struktur = js.id 
    JOIN feature f on js.feature = f.id 
    JOIN coa c on c.id = js.coa 
    JOIN coa_type ct on ct.id = js.coa_type 
    WHERE c.keterangan = 'Bank & Kas' 
    AND jd.deleted = 0 
    AND jd.createddate 
    LIKE '%2021-11%' 
    AND ct.jenis = 'KREDIT' 
    LIMIT 1000 
    OFFSET 0
 --> Execution Time: 0.001230001449585, Seconds : 1.230001449585
administrator - Tanggal/Waktu : 07-Aug-2021/08:29:48 AM => 
 --> 
    SELECT js.id, c.keterangan , ct.jenis 
    FROM jurnal_detail jd 
    JOIN jurnal_struktur js on jd.jurnal_struktur = js.id 
    JOIN feature f on js.feature = f.id 
    JOIN coa c on c.id = js.coa 
    JOIN coa_type ct on ct.id = js.coa_type 
    WHERE c.keterangan = 'Bank & Kas' 
    AND jd.deleted = 0 
    AND jd.createddate 
    LIKE '%2021-01%' 
    AND ct.jenis = 'DEBIT' 
    LIMIT 1000 
    OFFSET 0
 --> Execution Time: 0.00060391426086426, Seconds : 0.60391426086426
administrator - Tanggal/Waktu : 07-Aug-2021/08:29:48 AM => 
 --> 
    SELECT js.id, c.keterangan , ct.jenis 
    FROM jurnal_detail jd 
    JOIN jurnal_struktur js on jd.jurnal_struktur = js.id 
    JOIN feature f on js.feature = f.id 
    JOIN coa c on c.id = js.coa 
    JOIN coa_type ct on ct.id = js.coa_type 
    WHERE c.keterangan = 'Bank & Kas' 
    AND jd.deleted = 0 
    AND jd.createddate 
    LIKE '%2021-02%' 
    AND ct.jenis = 'DEBIT' 
    LIMIT 1000 
    OFFSET 0
 --> Execution Time: 0.00053691864013672, Seconds : 0.53691864013672
administrator - Tanggal/Waktu : 07-Aug-2021/08:29:48 AM => 
 --> 
    SELECT js.id, c.keterangan , ct.jenis 
    FROM jurnal_detail jd 
    JOIN jurnal_struktur js on jd.jurnal_struktur = js.id 
    JOIN feature f on js.feature = f.id 
    JOIN coa c on c.id = js.coa 
    JOIN coa_type ct on ct.id = js.coa_type 
    WHERE c.keterangan = 'Bank & Kas' 
    AND jd.deleted = 0 
    AND jd.createddate 
    LIKE '%2021-03%' 
    AND ct.jenis = 'DEBIT' 
    LIMIT 1000 
    OFFSET 0
 --> Execution Time: 0.00052690505981445, Seconds : 0.52690505981445
administrator - Tanggal/Waktu : 07-Aug-2021/08:29:48 AM => 
 --> 
    SELECT js.id, c.keterangan , ct.jenis 
    FROM jurnal_detail jd 
    JOIN jurnal_struktur js on jd.jurnal_struktur = js.id 
    JOIN feature f on js.feature = f.id 
    JOIN coa c on c.id = js.coa 
    JOIN coa_type ct on ct.id = js.coa_type 
    WHERE c.keterangan = 'Bank & Kas' 
    AND jd.deleted = 0 
    AND jd.createddate 
    LIKE '%2021-04%' 
    AND ct.jenis = 'DEBIT' 
    LIMIT 1000 
    OFFSET 0
 --> Execution Time: 0.002316951751709, Seconds : 2.316951751709
administrator - Tanggal/Waktu : 07-Aug-2021/08:29:48 AM => 
 --> 
    SELECT js.id, c.keterangan , ct.jenis 
    FROM jurnal_detail jd 
    JOIN jurnal_struktur js on jd.jurnal_struktur = js.id 
    JOIN feature f on js.feature = f.id 
    JOIN coa c on c.id = js.coa 
    JOIN coa_type ct on ct.id = js.coa_type 
    WHERE c.keterangan = 'Bank & Kas' 
    AND jd.deleted = 0 
    AND jd.createddate 
    LIKE '%2021-05%' 
    AND ct.jenis = 'DEBIT' 
    LIMIT 1000 
    OFFSET 0
 --> Execution Time: 0.00062704086303711, Seconds : 0.62704086303711
administrator - Tanggal/Waktu : 07-Aug-2021/08:29:48 AM => 
 --> 
    SELECT js.id, c.keterangan , ct.jenis 
    FROM jurnal_detail jd 
    JOIN jurnal_struktur js on jd.jurnal_struktur = js.id 
    JOIN feature f on js.feature = f.id 
    JOIN coa c on c.id = js.coa 
    JOIN coa_type ct on ct.id = js.coa_type 
    WHERE c.keterangan = 'Bank & Kas' 
    AND jd.deleted = 0 
    AND jd.createddate 
    LIKE '%2021-06%' 
    AND ct.jenis = 'DEBIT' 
    LIMIT 1000 
    OFFSET 0
 --> Execution Time: 0.00056815147399902, Seconds : 0.56815147399902
administrator - Tanggal/Waktu : 07-Aug-2021/08:29:48 AM => 
 --> 
    SELECT js.id, c.keterangan , ct.jenis 
    FROM jurnal_detail jd 
    JOIN jurnal_struktur js on jd.jurnal_struktur = js.id 
    JOIN feature f on js.feature = f.id 
    JOIN coa c on c.id = js.coa 
    JOIN coa_type ct on ct.id = js.coa_type 
    WHERE c.keterangan = 'Bank & Kas' 
    AND jd.deleted = 0 
    AND jd.createddate 
    LIKE '%2021-07%' 
    AND ct.jenis = 'DEBIT' 
    LIMIT 1000 
    OFFSET 0
 --> Execution Time: 0.00056600570678711, Seconds : 0.56600570678711
administrator - Tanggal/Waktu : 07-Aug-2021/08:29:48 AM => 
 --> 
    SELECT js.id, c.keterangan , ct.jenis 
    FROM jurnal_detail jd 
    JOIN jurnal_struktur js on jd.jurnal_struktur = js.id 
    JOIN feature f on js.feature = f.id 
    JOIN coa c on c.id = js.coa 
    JOIN coa_type ct on ct.id = js.coa_type 
    WHERE c.keterangan = 'Bank & Kas' 
    AND jd.deleted = 0 
    AND jd.createddate 
    LIKE '%2021-08%' 
    AND ct.jenis = 'DEBIT' 
    LIMIT 1000 
    OFFSET 0
 --> Execution Time: 0.00054001808166504, Seconds : 0.54001808166504
administrator - Tanggal/Waktu : 07-Aug-2021/08:29:48 AM => 
 --> 
    SELECT js.id, c.keterangan , ct.jenis 
    FROM jurnal_detail jd 
    JOIN jurnal_struktur js on jd.jurnal_struktur = js.id 
    JOIN feature f on js.feature = f.id 
    JOIN coa c on c.id = js.coa 
    JOIN coa_type ct on ct.id = js.coa_type 
    WHERE c.keterangan = 'Bank & Kas' 
    AND jd.deleted = 0 
    AND jd.createddate 
    LIKE '%2021-09%' 
    AND ct.jenis = 'DEBIT' 
    LIMIT 1000 
    OFFSET 0
 --> Execution Time: 0.00057506561279297, Seconds : 0.57506561279297
administrator - Tanggal/Waktu : 07-Aug-2021/08:29:48 AM => 
 --> 
    SELECT js.id, c.keterangan , ct.jenis 
    FROM jurnal_detail jd 
    JOIN jurnal_struktur js on jd.jurnal_struktur = js.id 
    JOIN feature f on js.feature = f.id 
    JOIN coa c on c.id = js.coa 
    JOIN coa_type ct on ct.id = js.coa_type 
    WHERE c.keterangan = 'Bank & Kas' 
    AND jd.deleted = 0 
    AND jd.createddate 
    LIKE '%2021-10%' 
    AND ct.jenis = 'DEBIT' 
    LIMIT 1000 
    OFFSET 0
 --> Execution Time: 0.00061583518981934, Seconds : 0.61583518981934
administrator - Tanggal/Waktu : 07-Aug-2021/08:29:48 AM => 
 --> 
    SELECT js.id, c.keterangan , ct.jenis 
    FROM jurnal_detail jd 
    JOIN jurnal_struktur js on jd.jurnal_struktur = js.id 
    JOIN feature f on js.feature = f.id 
    JOIN coa c on c.id = js.coa 
    JOIN coa_type ct on ct.id = js.coa_type 
    WHERE c.keterangan = 'Bank & Kas' 
    AND jd.deleted = 0 
    AND jd.createddate 
    LIKE '%2021-11%' 
    AND ct.jenis = 'DEBIT' 
    LIMIT 1000 
    OFFSET 0
 --> Execution Time: 0.00075697898864746, Seconds : 0.75697898864746
administrator - Tanggal/Waktu : 07-Aug-2021/08:29:48 AM => 
 --> 
    SELECT ( pi.harga * pi.qty)  as harga_beli_total , QUARTER( p.createddate)  AS quartal 
    FROM product_has_price_procurement phpr 
    JOIN procurement_item pi on pi.id = phpr.procurement_item 
    AND pi.deleted = 0 
    JOIN procurement p on p.id = pi.procurement 
    WHERE p.deleted = 0 
    AND p.createddate 
    LIKE '%2021%'
 --> Execution Time: 0.00082206726074219, Seconds : 0.82206726074219
administrator - Tanggal/Waktu : 07-Aug-2021/08:29:48 AM => 
 --> 
    SELECT     DISTINCT i.no_faktur ,pi.jumlah_bayar ,( ps.harga_beli * ip.qty)  as harga_beli_total , ip.sub_total as total_faktur , isa.jumlah as sisa_hutang , ist.status 
    FROM payment p 
    JOIN payment_item pi on p.id = pi.payment 
    JOIN invoice i on i.id = pi.invoice 
    JOIN metode_bayar mb on mb.id = i.metode_bayar 
    JOIN invoice_product ip on ip.invoice = i.id 
    JOIN product_satuan ps on ps.id = ip.product_satuan 
    JOIN ( 
    SELECT max( id)  id, invoice 
    FROM invoice_sisa 
    GROUP     BY invoice)  isa_group on isa_group.invoice = i.id 
    JOIN invoice_sisa isa on isa.id = isa_group.id 
    JOIN ( 
    SELECT max( id)  id, invoice 
    FROM invoice_status 
    GROUP     BY invoice)  ist_group on ist_group.invoice = i.id 
    JOIN invoice_status ist on ist.id = ist_group.id 
    WHERE p.deleted = 0 
    AND p.createddate 
    LIKE '%2021%' 
    ORDER     BY p.id desc
 --> Execution Time: 0.0074698925018311, Seconds : 7.4698925018311
administrator - Tanggal/Waktu : 07-Aug-2021/08:29:48 AM => 
 --> 
    SELECT * 
    FROM `general` 
    LIMIT 1000
 --> Execution Time: 0.001025915145874, Seconds : 1.025915145874
administrator - Tanggal/Waktu : 07-Aug-2021/08:29:48 AM => 
 --> 
    SELECT i.* 
    FROM invoice i 
    JOIN ( 
    SELECT max( id)  id, invoice 
    FROM invoice_status 
    GROUP     BY invoice)  iss on iss.invoice = i.id 
    JOIN invoice_status isa on isa.id = iss.id 
    WHERE isa.status = 'DRAFT' 
    AND i.deleted = 0 
    ORDER     BY i.id 
    DESC     LIMIT 5 
    OFFSET 0
 --> Execution Time: 0.0013580322265625, Seconds : 1.3580322265625
administrator - Tanggal/Waktu : 07-Aug-2021/08:29:48 AM => 
 --> 
    SELECT o.* 
    FROM `order` o 
    JOIN ( 
    SELECT max( id)  id, `order` 
    FROM order_status 
    GROUP     BY `order`)  oss on oss.order = o.id 
    JOIN order_status os on os.id = oss.id 
    WHERE os.status = 'DRAFT' 
    AND o.deleted = 0 
    ORDER     BY o.id 
    DESC     LIMIT 5 
    OFFSET 0
 --> Execution Time: 0.0016481876373291, Seconds : 1.6481876373291
administrator - Tanggal/Waktu : 07-Aug-2021/08:29:48 AM => 
 --> 
    SELECT ro.* 
    FROM retur_order ro 
    JOIN `order` o on o.id = ro.id 
    JOIN ( 
    SELECT max( id)  id, `order` 
    FROM order_status 
    GROUP     BY `order`)  oss on oss.order = o.id 
    JOIN order_status os on os.id = oss.id 
    WHERE ro.deleted = 0 
    AND os.status = 'DRAFT' 
    AND ro.deleted = 0 
    ORDER     BY ro.id 
    DESC     LIMIT 5 
    OFFSET 0
 --> Execution Time: 0.00091004371643066, Seconds : 0.91004371643066
