
----------../modules/template/controllers/product_stock/add----------
administrator - Tanggal/Waktu : 07-Aug-2021/08:37:08 AM => 
 --> 
    SELECT `p`.* 
    FROM `product` `p` 
    WHERE `p`.`deleted` =0 
    OR `p`.`deleted` 
    IS     NULL     LIMIT 1000
 --> Execution Time: 0.00062203407287598, Seconds : 0.62203407287598
administrator - Tanggal/Waktu : 07-Aug-2021/08:37:08 AM => 
 --> 
    SELECT `p`.* 
    FROM `gudang` `p` 
    WHERE `p`.`deleted` =0 
    OR `p`.`deleted` 
    IS     NULL     AND `p`.`id` = 1 
    LIMIT 1000
 --> Execution Time: 0.00048303604125977, Seconds : 0.48303604125977
administrator - Tanggal/Waktu : 07-Aug-2021/08:37:08 AM => 
 --> 
    SELECT `p`.* 
    FROM `rak` `p` 
    WHERE `p`.`deleted` =0 
    OR `p`.`deleted` 
    IS     NULL     AND `p`.`id` = 1 
    LIMIT 1000
 --> Execution Time: 0.00043702125549316, Seconds : 0.43702125549316
administrator - Tanggal/Waktu : 07-Aug-2021/08:37:08 AM => 
 --> 
    SELECT * 
    FROM `general` 
    LIMIT 1000
 --> Execution Time: 0.00037598609924316, Seconds : 0.37598609924316
administrator - Tanggal/Waktu : 07-Aug-2021/08:37:08 AM => 
 --> 
    SELECT i.* 
    FROM invoice i 
    JOIN ( 
    SELECT max( id)  id, invoice 
    FROM invoice_status 
    GROUP     BY invoice)  iss on iss.invoice = i.id 
    JOIN invoice_status isa on isa.id = iss.id 
    WHERE isa.status = 'DRAFT' 
    AND i.deleted = 0 
    ORDER     BY i.id 
    DESC     LIMIT 5 
    OFFSET 0
 --> Execution Time: 0.0017900466918945, Seconds : 1.7900466918945
administrator - Tanggal/Waktu : 07-Aug-2021/08:37:08 AM => 
 --> 
    SELECT o.* 
    FROM `order` o 
    JOIN ( 
    SELECT max( id)  id, `order` 
    FROM order_status 
    GROUP     BY `order`)  oss on oss.order = o.id 
    JOIN order_status os on os.id = oss.id 
    WHERE os.status = 'DRAFT' 
    AND o.deleted = 0 
    ORDER     BY o.id 
    DESC     LIMIT 5 
    OFFSET 0
 --> Execution Time: 0.0015628337860107, Seconds : 1.5628337860107
administrator - Tanggal/Waktu : 07-Aug-2021/08:37:08 AM => 
 --> 
    SELECT ro.* 
    FROM retur_order ro 
    JOIN `order` o on o.id = ro.id 
    JOIN ( 
    SELECT max( id)  id, `order` 
    FROM order_status 
    GROUP     BY `order`)  oss on oss.order = o.id 
    JOIN order_status os on os.id = oss.id 
    WHERE ro.deleted = 0 
    AND os.status = 'DRAFT' 
    AND ro.deleted = 0 
    ORDER     BY ro.id 
    DESC     LIMIT 5 
    OFFSET 0
 --> Execution Time: 0.0006721019744873, Seconds : 0.6721019744873
