
----------../modules/template/controllers/order/add----------
admin - Tanggal/Waktu : 08-Aug-2021/16:00:48 PM => 
 --> 
    SELECT `p`.* 
    FROM `pembeli` `p` 
    WHERE `p`.`deleted` =0 
    OR `p`.`deleted` 
    IS     NULL     AND `p`.`pembeli_kategori` = 2 
    LIMIT 1000
 --> Execution Time: 0.0005640983581543, Seconds : 0.5640983581543
admin - Tanggal/Waktu : 08-Aug-2021/16:00:48 PM => 
 --> 
    SELECT * 
    FROM `metode_bayar` 
    LIMIT 1000
 --> Execution Time: 0.00037407875061035, Seconds : 0.37407875061035
admin - Tanggal/Waktu : 08-Aug-2021/16:00:48 PM => 
 --> 
    SELECT `p`.* 
    FROM `pajak` `p` 
    WHERE `p`.`deleted` =0 
    OR `p`.`deleted` 
    IS     NULL     LIMIT 1000
 --> Execution Time: 0.0003669261932373, Seconds : 0.3669261932373
admin - Tanggal/Waktu : 08-Aug-2021/16:00:48 PM => 
 --> 
    SELECT * 
    FROM `potongan` 
    ORDER     BY `id` 
    DESC     LIMIT 1000
 --> Execution Time: 0.0008080005645752, Seconds : 0.8080005645752
admin - Tanggal/Waktu : 08-Aug-2021/16:00:48 PM => 
 --> 
    SELECT p.* , ps.stock 
    FROM product p 
    LEFT     JOIN ( 
    SELECT max( id)  id, product 
    FROM product_stock 
    GROUP     BY product)  ps_max on ps_max.product = p.id 
    LEFT     JOIN product_stock ps on ps.id = ps_max.id 
    LEFT     JOIN product_satuan pst on ps.product_satuan = pst.id 
    LEFT     JOIN satuan s on s.id = pst.satuan 
    WHERE p.deleted = 0 
    AND pst.satuan_terkecil = 1
 --> Execution Time: 0.022978067398071, Seconds : 22.978067398071
admin - Tanggal/Waktu : 08-Aug-2021/16:00:48 PM => 
 --> 
    SELECT * 
    FROM `general` 
    LIMIT 1000
 --> Execution Time: 0.00069713592529297, Seconds : 0.69713592529297
admin - Tanggal/Waktu : 08-Aug-2021/16:00:48 PM => 
 --> 
    SELECT i.* 
    FROM invoice i 
    JOIN ( 
    SELECT max( id)  id, invoice 
    FROM invoice_status 
    GROUP     BY invoice)  iss on iss.invoice = i.id 
    JOIN invoice_status isa on isa.id = iss.id 
    WHERE isa.status = 'DRAFT' 
    AND i.deleted = 0 
    ORDER     BY i.id 
    DESC     LIMIT 5 
    OFFSET 0
 --> Execution Time: 0.00097107887268066, Seconds : 0.97107887268066
admin - Tanggal/Waktu : 08-Aug-2021/16:00:48 PM => 
 --> 
    SELECT o.* 
    FROM `order` o 
    JOIN ( 
    SELECT max( id)  id, `order` 
    FROM order_status 
    GROUP     BY `order`)  oss on oss.order = o.id 
    JOIN order_status os on os.id = oss.id 
    WHERE os.status = 'DRAFT' 
    AND o.deleted = 0 
    ORDER     BY o.id 
    DESC     LIMIT 5 
    OFFSET 0
 --> Execution Time: 0.00097990036010742, Seconds : 0.97990036010742
admin - Tanggal/Waktu : 08-Aug-2021/16:00:48 PM => 
 --> 
    SELECT ro.* 
    FROM retur_order ro 
    JOIN `order` o on o.id = ro.id 
    JOIN ( 
    SELECT max( id)  id, `order` 
    FROM order_status 
    GROUP     BY `order`)  oss on oss.order = o.id 
    JOIN order_status os on os.id = oss.id 
    WHERE ro.deleted = 0 
    AND os.status = 'DRAFT' 
    AND ro.deleted = 0 
    ORDER     BY ro.id 
    DESC     LIMIT 5 
    OFFSET 0
 --> Execution Time: 0.0011398792266846, Seconds : 1.1398792266846
