
----------../modules/database/controllers/login/index----------
 - Tanggal/Waktu : 19-Aug-2021/12:11:22 PM => 
 --> 
    SELECT * 
    FROM `general` 
    LIMIT 1000
 --> Execution Time: 0.0035769939422607, Seconds : 3.5769939422607
