
----------../modules/database/controllers/login/sign_in----------
administrator - Tanggal/Waktu : 08-Aug-2021/10:35:26 AM => 
 --> 
    SELECT `u`.*, `p`.`hak_akses` 
    FROM `user` `u` 
    JOIN `priveledge` `p` ON `u`.`priveledge` = `p`.`id` 
    WHERE `u`.`username` = 'administrator' 
    AND `u`.`password` = '93207db25ad357906be2fd0c3f65f3dc' 
    AND ( `u`.`deleted` =0 
    OR `u`.`deleted` 
    IS     NULL)  
    LIMIT 1000
 --> Execution Time: 0.0082099437713623, Seconds : 8.2099437713623

----------../modules/template/controllers/dashboard/index----------
administrator - Tanggal/Waktu : 08-Aug-2021/10:35:26 AM => 
 --> 
    SELECT `i`.*, `p`.`nama` as `nama_pembeli`, `p`.`no_hp`, `p`.`alamat`, `isa`.`status` 
    FROM `invoice` `i` 
    JOIN `pembeli` `p` ON `i`.`pembeli` = `p`.`id` 
    JOIN ( 
    SELECT max( id)  id, invoice 
    FROM invoice_status 
    GROUP     BY invoice)  iss ON `i`.`id` = `iss`.`invoice` 
    JOIN `invoice_status` `isa` ON `isa`.`id`= `iss`.`id` 
    WHERE `i`.`deleted` =0 
    ORDER     BY `i`.`id` 
    DESC     LIMIT 5
 --> Execution Time: 0.01158618927002, Seconds : 11.58618927002
administrator - Tanggal/Waktu : 08-Aug-2021/10:35:26 AM => 
 --> 
    SELECT sum( total)  as total 
    FROM invoice 
    WHERE tanggal_faktur 
    LIKE '%2021%' 
    AND deleted = 0 
    LIMIT 1000 
    OFFSET 0
 --> Execution Time: 0.00055193901062012, Seconds : 0.55193901062012
administrator - Tanggal/Waktu : 08-Aug-2021/10:35:26 AM => 
 --> 
    SELECT count( *)  as jumlah 
    FROM invoice 
    WHERE tanggal_faktur 
    LIKE '%2021%' 
    AND deleted = 0 
    LIMIT 1000 
    OFFSET 0
 --> Execution Time: 0.0004580020904541, Seconds : 0.4580020904541
administrator - Tanggal/Waktu : 08-Aug-2021/10:35:26 AM => 
 --> 
    SELECT sum( i.total)  as total 
    FROM invoice i 
    JOIN ( 
    SELECT max( id)  id, invoice 
    FROM invoice_status 
    GROUP     BY invoice)  iss on iss.invoice = i.id 
    JOIN invoice_status isa on isa.id = iss.id 
    WHERE isa.status = 'PAID' 
    AND i.tanggal_faktur 
    LIKE '%2021%' 
    AND i.deleted = 0 
    LIMIT 1000 
    OFFSET 0
 --> Execution Time: 0.00092911720275879, Seconds : 0.92911720275879
administrator - Tanggal/Waktu : 08-Aug-2021/10:35:26 AM => 
 --> 
    SELECT pt.total , QUARTER( pt.createddate)  AS quartal 
    FROM pembayaran_tagihan pt 
    WHERE pt.createddate 
    LIKE '%2021%' 
    LIMIT 1000 
    OFFSET 0
 --> Execution Time: 0.0026540756225586, Seconds : 2.6540756225586
administrator - Tanggal/Waktu : 08-Aug-2021/10:35:26 AM => 
 --> 
    SELECT pv.total , QUARTER( pv.createddate)  AS quartal 
    FROM pembayaran_vendor pv 
    WHERE pv.createddate 
    LIKE '%2021%' 
    LIMIT 1000 
    OFFSET 0
 --> Execution Time: 0.0024371147155762, Seconds : 2.4371147155762
administrator - Tanggal/Waktu : 08-Aug-2021/10:35:26 AM => 
 --> 
    SELECT pl.total , QUARTER( pl.createddate)  AS quartal 
    FROM pembayaran_lain_lain pl 
    WHERE pl.createddate 
    LIKE '%2021%' 
    LIMIT 1000 
    OFFSET 0
 --> Execution Time: 0.0022659301757812, Seconds : 2.2659301757812
administrator - Tanggal/Waktu : 08-Aug-2021/10:35:26 AM => 
 --> 
    SELECT * 
    FROM `product` 
    LIMIT 1000
 --> Execution Time: 0.0054090023040771, Seconds : 5.4090023040771
administrator - Tanggal/Waktu : 08-Aug-2021/10:35:26 AM => 
 --> 
    SELECT * 
    FROM `pembeli` 
    LIMIT 1000
 --> Execution Time: 0.00045895576477051, Seconds : 0.45895576477051
administrator - Tanggal/Waktu : 08-Aug-2021/10:35:26 AM => 
 --> 
    SELECT * 
    FROM `user` 
    LIMIT 1000
 --> Execution Time: 0.00040578842163086, Seconds : 0.40578842163086
administrator - Tanggal/Waktu : 08-Aug-2021/10:35:26 AM => 
 --> 
    SELECT * 
    FROM invoice 
    WHERE createddate 
    LIKE '%2021-01%' 
    AND deleted = 0 
    LIMIT 1000 
    OFFSET 0
 --> Execution Time: 0.00051712989807129, Seconds : 0.51712989807129
administrator - Tanggal/Waktu : 08-Aug-2021/10:35:26 AM => 
 --> 
    SELECT * 
    FROM invoice 
    WHERE createddate 
    LIKE '%2021-02%' 
    AND deleted = 0 
    LIMIT 1000 
    OFFSET 0
 --> Execution Time: 0.00055503845214844, Seconds : 0.55503845214844
administrator - Tanggal/Waktu : 08-Aug-2021/10:35:26 AM => 
 --> 
    SELECT * 
    FROM invoice 
    WHERE createddate 
    LIKE '%2021-03%' 
    AND deleted = 0 
    LIMIT 1000 
    OFFSET 0
 --> Execution Time: 0.0004580020904541, Seconds : 0.4580020904541
administrator - Tanggal/Waktu : 08-Aug-2021/10:35:26 AM => 
 --> 
    SELECT * 
    FROM invoice 
    WHERE createddate 
    LIKE '%2021-04%' 
    AND deleted = 0 
    LIMIT 1000 
    OFFSET 0
 --> Execution Time: 0.00049781799316406, Seconds : 0.49781799316406
administrator - Tanggal/Waktu : 08-Aug-2021/10:35:26 AM => 
 --> 
    SELECT * 
    FROM invoice 
    WHERE createddate 
    LIKE '%2021-05%' 
    AND deleted = 0 
    LIMIT 1000 
    OFFSET 0
 --> Execution Time: 0.0042309761047363, Seconds : 4.2309761047363
administrator - Tanggal/Waktu : 08-Aug-2021/10:35:26 AM => 
 --> 
    SELECT * 
    FROM invoice 
    WHERE createddate 
    LIKE '%2021-06%' 
    AND deleted = 0 
    LIMIT 1000 
    OFFSET 0
 --> Execution Time: 0.00050616264343262, Seconds : 0.50616264343262
administrator - Tanggal/Waktu : 08-Aug-2021/10:35:26 AM => 
 --> 
    SELECT * 
    FROM invoice 
    WHERE createddate 
    LIKE '%2021-07%' 
    AND deleted = 0 
    LIMIT 1000 
    OFFSET 0
 --> Execution Time: 0.00044989585876465, Seconds : 0.44989585876465
administrator - Tanggal/Waktu : 08-Aug-2021/10:35:26 AM => 
 --> 
    SELECT * 
    FROM invoice 
    WHERE createddate 
    LIKE '%2021-08%' 
    AND deleted = 0 
    LIMIT 1000 
    OFFSET 0
 --> Execution Time: 0.00047111511230469, Seconds : 0.47111511230469
administrator - Tanggal/Waktu : 08-Aug-2021/10:35:26 AM => 
 --> 
    SELECT * 
    FROM invoice 
    WHERE createddate 
    LIKE '%2021-09%' 
    AND deleted = 0 
    LIMIT 1000 
    OFFSET 0
 --> Execution Time: 0.00041985511779785, Seconds : 0.41985511779785
administrator - Tanggal/Waktu : 08-Aug-2021/10:35:26 AM => 
 --> 
    SELECT * 
    FROM invoice 
    WHERE createddate 
    LIKE '%2021-10%' 
    AND deleted = 0 
    LIMIT 1000 
    OFFSET 0
 --> Execution Time: 0.00041794776916504, Seconds : 0.41794776916504
administrator - Tanggal/Waktu : 08-Aug-2021/10:35:26 AM => 
 --> 
    SELECT * 
    FROM invoice 
    WHERE createddate 
    LIKE '%2021-11%' 
    AND deleted = 0 
    LIMIT 1000 
    OFFSET 0
 --> Execution Time: 0.00040912628173828, Seconds : 0.40912628173828
administrator - Tanggal/Waktu : 08-Aug-2021/10:35:26 AM => 
 --> 
    SELECT js.id, c.keterangan , ct.jenis 
    FROM jurnal_detail jd 
    JOIN jurnal_struktur js on jd.jurnal_struktur = js.id 
    JOIN feature f on js.feature = f.id 
    JOIN coa c on c.id = js.coa 
    JOIN coa_type ct on ct.id = js.coa_type 
    WHERE c.keterangan = 'Bank & Kas' 
    AND jd.deleted = 0 
    AND jd.createddate 
    LIKE '%2021-01%' 
    AND ct.jenis = 'KREDIT' 
    LIMIT 1000 
    OFFSET 0
 --> Execution Time: 0.009666919708252, Seconds : 9.666919708252
administrator - Tanggal/Waktu : 08-Aug-2021/10:35:26 AM => 
 --> 
    SELECT js.id, c.keterangan , ct.jenis 
    FROM jurnal_detail jd 
    JOIN jurnal_struktur js on jd.jurnal_struktur = js.id 
    JOIN feature f on js.feature = f.id 
    JOIN coa c on c.id = js.coa 
    JOIN coa_type ct on ct.id = js.coa_type 
    WHERE c.keterangan = 'Bank & Kas' 
    AND jd.deleted = 0 
    AND jd.createddate 
    LIKE '%2021-02%' 
    AND ct.jenis = 'KREDIT' 
    LIMIT 1000 
    OFFSET 0
 --> Execution Time: 0.00073099136352539, Seconds : 0.73099136352539
administrator - Tanggal/Waktu : 08-Aug-2021/10:35:26 AM => 
 --> 
    SELECT js.id, c.keterangan , ct.jenis 
    FROM jurnal_detail jd 
    JOIN jurnal_struktur js on jd.jurnal_struktur = js.id 
    JOIN feature f on js.feature = f.id 
    JOIN coa c on c.id = js.coa 
    JOIN coa_type ct on ct.id = js.coa_type 
    WHERE c.keterangan = 'Bank & Kas' 
    AND jd.deleted = 0 
    AND jd.createddate 
    LIKE '%2021-03%' 
    AND ct.jenis = 'KREDIT' 
    LIMIT 1000 
    OFFSET 0
 --> Execution Time: 0.00071406364440918, Seconds : 0.71406364440918
administrator - Tanggal/Waktu : 08-Aug-2021/10:35:26 AM => 
 --> 
    SELECT js.id, c.keterangan , ct.jenis 
    FROM jurnal_detail jd 
    JOIN jurnal_struktur js on jd.jurnal_struktur = js.id 
    JOIN feature f on js.feature = f.id 
    JOIN coa c on c.id = js.coa 
    JOIN coa_type ct on ct.id = js.coa_type 
    WHERE c.keterangan = 'Bank & Kas' 
    AND jd.deleted = 0 
    AND jd.createddate 
    LIKE '%2021-04%' 
    AND ct.jenis = 'KREDIT' 
    LIMIT 1000 
    OFFSET 0
 --> Execution Time: 0.00065708160400391, Seconds : 0.65708160400391
administrator - Tanggal/Waktu : 08-Aug-2021/10:35:26 AM => 
 --> 
    SELECT js.id, c.keterangan , ct.jenis 
    FROM jurnal_detail jd 
    JOIN jurnal_struktur js on jd.jurnal_struktur = js.id 
    JOIN feature f on js.feature = f.id 
    JOIN coa c on c.id = js.coa 
    JOIN coa_type ct on ct.id = js.coa_type 
    WHERE c.keterangan = 'Bank & Kas' 
    AND jd.deleted = 0 
    AND jd.createddate 
    LIKE '%2021-05%' 
    AND ct.jenis = 'KREDIT' 
    LIMIT 1000 
    OFFSET 0
 --> Execution Time: 0.00073003768920898, Seconds : 0.73003768920898
administrator - Tanggal/Waktu : 08-Aug-2021/10:35:26 AM => 
 --> 
    SELECT js.id, c.keterangan , ct.jenis 
    FROM jurnal_detail jd 
    JOIN jurnal_struktur js on jd.jurnal_struktur = js.id 
    JOIN feature f on js.feature = f.id 
    JOIN coa c on c.id = js.coa 
    JOIN coa_type ct on ct.id = js.coa_type 
    WHERE c.keterangan = 'Bank & Kas' 
    AND jd.deleted = 0 
    AND jd.createddate 
    LIKE '%2021-06%' 
    AND ct.jenis = 'KREDIT' 
    LIMIT 1000 
    OFFSET 0
 --> Execution Time: 0.00070500373840332, Seconds : 0.70500373840332
administrator - Tanggal/Waktu : 08-Aug-2021/10:35:26 AM => 
 --> 
    SELECT js.id, c.keterangan , ct.jenis 
    FROM jurnal_detail jd 
    JOIN jurnal_struktur js on jd.jurnal_struktur = js.id 
    JOIN feature f on js.feature = f.id 
    JOIN coa c on c.id = js.coa 
    JOIN coa_type ct on ct.id = js.coa_type 
    WHERE c.keterangan = 'Bank & Kas' 
    AND jd.deleted = 0 
    AND jd.createddate 
    LIKE '%2021-07%' 
    AND ct.jenis = 'KREDIT' 
    LIMIT 1000 
    OFFSET 0
 --> Execution Time: 0.00059199333190918, Seconds : 0.59199333190918
administrator - Tanggal/Waktu : 08-Aug-2021/10:35:26 AM => 
 --> 
    SELECT js.id, c.keterangan , ct.jenis 
    FROM jurnal_detail jd 
    JOIN jurnal_struktur js on jd.jurnal_struktur = js.id 
    JOIN feature f on js.feature = f.id 
    JOIN coa c on c.id = js.coa 
    JOIN coa_type ct on ct.id = js.coa_type 
    WHERE c.keterangan = 'Bank & Kas' 
    AND jd.deleted = 0 
    AND jd.createddate 
    LIKE '%2021-08%' 
    AND ct.jenis = 'KREDIT' 
    LIMIT 1000 
    OFFSET 0
 --> Execution Time: 0.00063896179199219, Seconds : 0.63896179199219
administrator - Tanggal/Waktu : 08-Aug-2021/10:35:26 AM => 
 --> 
    SELECT js.id, c.keterangan , ct.jenis 
    FROM jurnal_detail jd 
    JOIN jurnal_struktur js on jd.jurnal_struktur = js.id 
    JOIN feature f on js.feature = f.id 
    JOIN coa c on c.id = js.coa 
    JOIN coa_type ct on ct.id = js.coa_type 
    WHERE c.keterangan = 'Bank & Kas' 
    AND jd.deleted = 0 
    AND jd.createddate 
    LIKE '%2021-09%' 
    AND ct.jenis = 'KREDIT' 
    LIMIT 1000 
    OFFSET 0
 --> Execution Time: 0.00066304206848145, Seconds : 0.66304206848145
administrator - Tanggal/Waktu : 08-Aug-2021/10:35:26 AM => 
 --> 
    SELECT js.id, c.keterangan , ct.jenis 
    FROM jurnal_detail jd 
    JOIN jurnal_struktur js on jd.jurnal_struktur = js.id 
    JOIN feature f on js.feature = f.id 
    JOIN coa c on c.id = js.coa 
    JOIN coa_type ct on ct.id = js.coa_type 
    WHERE c.keterangan = 'Bank & Kas' 
    AND jd.deleted = 0 
    AND jd.createddate 
    LIKE '%2021-10%' 
    AND ct.jenis = 'KREDIT' 
    LIMIT 1000 
    OFFSET 0
 --> Execution Time: 0.00078606605529785, Seconds : 0.78606605529785
administrator - Tanggal/Waktu : 08-Aug-2021/10:35:26 AM => 
 --> 
    SELECT js.id, c.keterangan , ct.jenis 
    FROM jurnal_detail jd 
    JOIN jurnal_struktur js on jd.jurnal_struktur = js.id 
    JOIN feature f on js.feature = f.id 
    JOIN coa c on c.id = js.coa 
    JOIN coa_type ct on ct.id = js.coa_type 
    WHERE c.keterangan = 'Bank & Kas' 
    AND jd.deleted = 0 
    AND jd.createddate 
    LIKE '%2021-11%' 
    AND ct.jenis = 'KREDIT' 
    LIMIT 1000 
    OFFSET 0
 --> Execution Time: 0.0015568733215332, Seconds : 1.5568733215332
administrator - Tanggal/Waktu : 08-Aug-2021/10:35:26 AM => 
 --> 
    SELECT js.id, c.keterangan , ct.jenis 
    FROM jurnal_detail jd 
    JOIN jurnal_struktur js on jd.jurnal_struktur = js.id 
    JOIN feature f on js.feature = f.id 
    JOIN coa c on c.id = js.coa 
    JOIN coa_type ct on ct.id = js.coa_type 
    WHERE c.keterangan = 'Bank & Kas' 
    AND jd.deleted = 0 
    AND jd.createddate 
    LIKE '%2021-01%' 
    AND ct.jenis = 'DEBIT' 
    LIMIT 1000 
    OFFSET 0
 --> Execution Time: 0.00064206123352051, Seconds : 0.64206123352051
administrator - Tanggal/Waktu : 08-Aug-2021/10:35:26 AM => 
 --> 
    SELECT js.id, c.keterangan , ct.jenis 
    FROM jurnal_detail jd 
    JOIN jurnal_struktur js on jd.jurnal_struktur = js.id 
    JOIN feature f on js.feature = f.id 
    JOIN coa c on c.id = js.coa 
    JOIN coa_type ct on ct.id = js.coa_type 
    WHERE c.keterangan = 'Bank & Kas' 
    AND jd.deleted = 0 
    AND jd.createddate 
    LIKE '%2021-02%' 
    AND ct.jenis = 'DEBIT' 
    LIMIT 1000 
    OFFSET 0
 --> Execution Time: 0.00079894065856934, Seconds : 0.79894065856934
administrator - Tanggal/Waktu : 08-Aug-2021/10:35:26 AM => 
 --> 
    SELECT js.id, c.keterangan , ct.jenis 
    FROM jurnal_detail jd 
    JOIN jurnal_struktur js on jd.jurnal_struktur = js.id 
    JOIN feature f on js.feature = f.id 
    JOIN coa c on c.id = js.coa 
    JOIN coa_type ct on ct.id = js.coa_type 
    WHERE c.keterangan = 'Bank & Kas' 
    AND jd.deleted = 0 
    AND jd.createddate 
    LIKE '%2021-03%' 
    AND ct.jenis = 'DEBIT' 
    LIMIT 1000 
    OFFSET 0
 --> Execution Time: 0.00092887878417969, Seconds : 0.92887878417969
administrator - Tanggal/Waktu : 08-Aug-2021/10:35:26 AM => 
 --> 
    SELECT js.id, c.keterangan , ct.jenis 
    FROM jurnal_detail jd 
    JOIN jurnal_struktur js on jd.jurnal_struktur = js.id 
    JOIN feature f on js.feature = f.id 
    JOIN coa c on c.id = js.coa 
    JOIN coa_type ct on ct.id = js.coa_type 
    WHERE c.keterangan = 'Bank & Kas' 
    AND jd.deleted = 0 
    AND jd.createddate 
    LIKE '%2021-04%' 
    AND ct.jenis = 'DEBIT' 
    LIMIT 1000 
    OFFSET 0
 --> Execution Time: 0.00052499771118164, Seconds : 0.52499771118164
administrator - Tanggal/Waktu : 08-Aug-2021/10:35:26 AM => 
 --> 
    SELECT js.id, c.keterangan , ct.jenis 
    FROM jurnal_detail jd 
    JOIN jurnal_struktur js on jd.jurnal_struktur = js.id 
    JOIN feature f on js.feature = f.id 
    JOIN coa c on c.id = js.coa 
    JOIN coa_type ct on ct.id = js.coa_type 
    WHERE c.keterangan = 'Bank & Kas' 
    AND jd.deleted = 0 
    AND jd.createddate 
    LIKE '%2021-05%' 
    AND ct.jenis = 'DEBIT' 
    LIMIT 1000 
    OFFSET 0
 --> Execution Time: 0.00047111511230469, Seconds : 0.47111511230469
administrator - Tanggal/Waktu : 08-Aug-2021/10:35:26 AM => 
 --> 
    SELECT js.id, c.keterangan , ct.jenis 
    FROM jurnal_detail jd 
    JOIN jurnal_struktur js on jd.jurnal_struktur = js.id 
    JOIN feature f on js.feature = f.id 
    JOIN coa c on c.id = js.coa 
    JOIN coa_type ct on ct.id = js.coa_type 
    WHERE c.keterangan = 'Bank & Kas' 
    AND jd.deleted = 0 
    AND jd.createddate 
    LIKE '%2021-06%' 
    AND ct.jenis = 'DEBIT' 
    LIMIT 1000 
    OFFSET 0
 --> Execution Time: 0.00050592422485352, Seconds : 0.50592422485352
administrator - Tanggal/Waktu : 08-Aug-2021/10:35:26 AM => 
 --> 
    SELECT js.id, c.keterangan , ct.jenis 
    FROM jurnal_detail jd 
    JOIN jurnal_struktur js on jd.jurnal_struktur = js.id 
    JOIN feature f on js.feature = f.id 
    JOIN coa c on c.id = js.coa 
    JOIN coa_type ct on ct.id = js.coa_type 
    WHERE c.keterangan = 'Bank & Kas' 
    AND jd.deleted = 0 
    AND jd.createddate 
    LIKE '%2021-07%' 
    AND ct.jenis = 'DEBIT' 
    LIMIT 1000 
    OFFSET 0
 --> Execution Time: 0.00052309036254883, Seconds : 0.52309036254883
administrator - Tanggal/Waktu : 08-Aug-2021/10:35:26 AM => 
 --> 
    SELECT js.id, c.keterangan , ct.jenis 
    FROM jurnal_detail jd 
    JOIN jurnal_struktur js on jd.jurnal_struktur = js.id 
    JOIN feature f on js.feature = f.id 
    JOIN coa c on c.id = js.coa 
    JOIN coa_type ct on ct.id = js.coa_type 
    WHERE c.keterangan = 'Bank & Kas' 
    AND jd.deleted = 0 
    AND jd.createddate 
    LIKE '%2021-08%' 
    AND ct.jenis = 'DEBIT' 
    LIMIT 1000 
    OFFSET 0
 --> Execution Time: 0.00052905082702637, Seconds : 0.52905082702637
administrator - Tanggal/Waktu : 08-Aug-2021/10:35:26 AM => 
 --> 
    SELECT js.id, c.keterangan , ct.jenis 
    FROM jurnal_detail jd 
    JOIN jurnal_struktur js on jd.jurnal_struktur = js.id 
    JOIN feature f on js.feature = f.id 
    JOIN coa c on c.id = js.coa 
    JOIN coa_type ct on ct.id = js.coa_type 
    WHERE c.keterangan = 'Bank & Kas' 
    AND jd.deleted = 0 
    AND jd.createddate 
    LIKE '%2021-09%' 
    AND ct.jenis = 'DEBIT' 
    LIMIT 1000 
    OFFSET 0
 --> Execution Time: 0.00053501129150391, Seconds : 0.53501129150391
administrator - Tanggal/Waktu : 08-Aug-2021/10:35:26 AM => 
 --> 
    SELECT js.id, c.keterangan , ct.jenis 
    FROM jurnal_detail jd 
    JOIN jurnal_struktur js on jd.jurnal_struktur = js.id 
    JOIN feature f on js.feature = f.id 
    JOIN coa c on c.id = js.coa 
    JOIN coa_type ct on ct.id = js.coa_type 
    WHERE c.keterangan = 'Bank & Kas' 
    AND jd.deleted = 0 
    AND jd.createddate 
    LIKE '%2021-10%' 
    AND ct.jenis = 'DEBIT' 
    LIMIT 1000 
    OFFSET 0
 --> Execution Time: 0.00063490867614746, Seconds : 0.63490867614746
administrator - Tanggal/Waktu : 08-Aug-2021/10:35:26 AM => 
 --> 
    SELECT js.id, c.keterangan , ct.jenis 
    FROM jurnal_detail jd 
    JOIN jurnal_struktur js on jd.jurnal_struktur = js.id 
    JOIN feature f on js.feature = f.id 
    JOIN coa c on c.id = js.coa 
    JOIN coa_type ct on ct.id = js.coa_type 
    WHERE c.keterangan = 'Bank & Kas' 
    AND jd.deleted = 0 
    AND jd.createddate 
    LIKE '%2021-11%' 
    AND ct.jenis = 'DEBIT' 
    LIMIT 1000 
    OFFSET 0
 --> Execution Time: 0.00075793266296387, Seconds : 0.75793266296387
administrator - Tanggal/Waktu : 08-Aug-2021/10:35:26 AM => 
 --> 
    SELECT ( pi.harga * pi.qty)  as harga_beli_total , QUARTER( p.createddate)  AS quartal 
    FROM product_has_price_procurement phpr 
    JOIN procurement_item pi on pi.id = phpr.procurement_item 
    AND pi.deleted = 0 
    JOIN procurement p on p.id = pi.procurement 
    WHERE p.deleted = 0 
    AND p.createddate 
    LIKE '%2021%'
 --> Execution Time: 0.026356935501099, Seconds : 26.356935501099
administrator - Tanggal/Waktu : 08-Aug-2021/10:35:26 AM => 
 --> 
    SELECT     DISTINCT i.no_faktur ,pi.jumlah_bayar ,( ps.harga_beli * ip.qty)  as harga_beli_total , ip.sub_total as total_faktur , isa.jumlah as sisa_hutang , ist.status 
    FROM payment p 
    JOIN payment_item pi on p.id = pi.payment 
    JOIN invoice i on i.id = pi.invoice 
    JOIN metode_bayar mb on mb.id = i.metode_bayar 
    JOIN invoice_product ip on ip.invoice = i.id 
    JOIN product_satuan ps on ps.id = ip.product_satuan 
    JOIN ( 
    SELECT max( id)  id, invoice 
    FROM invoice_sisa 
    GROUP     BY invoice)  isa_group on isa_group.invoice = i.id 
    JOIN invoice_sisa isa on isa.id = isa_group.id 
    JOIN ( 
    SELECT max( id)  id, invoice 
    FROM invoice_status 
    GROUP     BY invoice)  ist_group on ist_group.invoice = i.id 
    JOIN invoice_status ist on ist.id = ist_group.id 
    WHERE p.deleted = 0 
    AND p.createddate 
    LIKE '%2021%' 
    ORDER     BY p.id desc
 --> Execution Time: 0.019278049468994, Seconds : 19.278049468994
administrator - Tanggal/Waktu : 08-Aug-2021/10:35:26 AM => 
 --> 
    SELECT * 
    FROM `general` 
    LIMIT 1000
 --> Execution Time: 0.0023560523986816, Seconds : 2.3560523986816
administrator - Tanggal/Waktu : 08-Aug-2021/10:35:26 AM => 
 --> 
    SELECT i.* 
    FROM invoice i 
    JOIN ( 
    SELECT max( id)  id, invoice 
    FROM invoice_status 
    GROUP     BY invoice)  iss on iss.invoice = i.id 
    JOIN invoice_status isa on isa.id = iss.id 
    WHERE isa.status = 'DRAFT' 
    AND i.deleted = 0 
    ORDER     BY i.id 
    DESC     LIMIT 5 
    OFFSET 0
 --> Execution Time: 0.0010149478912354, Seconds : 1.0149478912354
administrator - Tanggal/Waktu : 08-Aug-2021/10:35:26 AM => 
 --> 
    SELECT o.* 
    FROM `order` o 
    JOIN ( 
    SELECT max( id)  id, `order` 
    FROM order_status 
    GROUP     BY `order`)  oss on oss.order = o.id 
    JOIN order_status os on os.id = oss.id 
    WHERE os.status = 'DRAFT' 
    AND o.deleted = 0 
    ORDER     BY o.id 
    DESC     LIMIT 5 
    OFFSET 0
 --> Execution Time: 0.0046169757843018, Seconds : 4.6169757843018
administrator - Tanggal/Waktu : 08-Aug-2021/10:35:26 AM => 
 --> 
    SELECT ro.* 
    FROM retur_order ro 
    JOIN `order` o on o.id = ro.id 
    JOIN ( 
    SELECT max( id)  id, `order` 
    FROM order_status 
    GROUP     BY `order`)  oss on oss.order = o.id 
    JOIN order_status os on os.id = oss.id 
    WHERE ro.deleted = 0 
    AND os.status = 'DRAFT' 
    AND ro.deleted = 0 
    ORDER     BY ro.id 
    DESC     LIMIT 5 
    OFFSET 0
 --> Execution Time: 0.0040249824523926, Seconds : 4.0249824523926
