
----------../modules/order/controllers/order/chooseProduk----------
administrator - Tanggal/Waktu : 07-Aug-2021/09:20:49 AM => 
 --> 
    SELECT ps.* , s.nama_satuan , ps.qty as konversi , ps.ket_harga as keterangan 
    FROM product_satuan ps 
    JOIN satuan s on s.id = ps.satuan 
    WHERE ps.product = 3158
 --> Execution Time: 0.001046895980835, Seconds : 1.046895980835
