
----------../modules/template/controllers/satuan/index----------
admin - Tanggal/Waktu : 07-Oct-2021/19:10:19 PM => 
 --> 
    SELECT `k`.*, `p`.`product` as `nama_product`, `s`.`nama_satuan`, `hg`.`harga` as `harga_jual_fix` 
    FROM `product_satuan` `k` 
    JOIN `product` `p` ON `k`.`product` = `p`.`id` 
    JOIN ( 
    SELECT max( id)  id, product_satuan 
    FROM product_has_harga_jual 
    GROUP     BY product_satuan)  hg_max ON `hg_max`.`product_satuan` = `k`.`id` 
    JOIN `product_has_harga_jual` `hg` ON `hg`.`id` = `hg_max`.`id` 
    LEFT     JOIN `satuan` `s` ON `s`.`id` = `k`.`satuan` 
    WHERE `k`.`deleted` 
    IS     NULL     OR `k`.`deleted` =0 
    LIMIT 10
 --> Execution Time: 0.0072290897369385, Seconds : 7.2290897369385
admin - Tanggal/Waktu : 07-Oct-2021/19:10:19 PM => 
 --> 
    SELECT COUNT( *)  AS `numrows` 
    FROM `product_satuan` `k` 
    JOIN `product` `p` ON `k`.`product` = `p`.`id` 
    LEFT     JOIN `satuan` `s` ON `s`.`id` = `k`.`satuan` 
    WHERE `k`.`deleted` 
    IS     NULL     OR `k`.`deleted` =0
 --> Execution Time: 0.006627082824707, Seconds : 6.627082824707
admin - Tanggal/Waktu : 07-Oct-2021/19:10:19 PM => 
 --> 
    SELECT * 
    FROM `general` 
    LIMIT 1000
 --> Execution Time: 0.00051593780517578, Seconds : 0.51593780517578
admin - Tanggal/Waktu : 07-Oct-2021/19:10:19 PM => 
 --> 
    SELECT i.* 
    FROM invoice i 
    JOIN ( 
    SELECT max( id)  id, invoice 
    FROM invoice_status 
    GROUP     BY invoice)  iss on iss.invoice = i.id 
    JOIN invoice_status isa on isa.id = iss.id 
    WHERE isa.status = 'DRAFT' 
    AND i.deleted = 0 
    ORDER     BY i.id 
    DESC     LIMIT 5 
    OFFSET 0
 --> Execution Time: 0.00095891952514648, Seconds : 0.95891952514648
admin - Tanggal/Waktu : 07-Oct-2021/19:10:19 PM => 
 --> 
    SELECT o.* 
    FROM `order` o 
    JOIN ( 
    SELECT max( id)  id, `order` 
    FROM order_status 
    GROUP     BY `order`)  oss on oss.order = o.id 
    JOIN order_status os on os.id = oss.id 
    WHERE os.status = 'DRAFT' 
    AND o.deleted = 0 
    ORDER     BY o.id 
    DESC     LIMIT 5 
    OFFSET 0
 --> Execution Time: 0.0010762214660645, Seconds : 1.0762214660645
admin - Tanggal/Waktu : 07-Oct-2021/19:10:19 PM => 
 --> 
    SELECT ro.* 
    FROM retur_order ro 
    JOIN `order` o on o.id = ro.id 
    JOIN ( 
    SELECT max( id)  id, `order` 
    FROM order_status 
    GROUP     BY `order`)  oss on oss.order = o.id 
    JOIN order_status os on os.id = oss.id 
    WHERE ro.deleted = 0 
    AND os.status = 'DRAFT' 
    AND ro.deleted = 0 
    ORDER     BY ro.id 
    DESC     LIMIT 5 
    OFFSET 0
 --> Execution Time: 0.00076389312744141, Seconds : 0.76389312744141
