
----------../modules/template/controllers/unit/index----------
admin - Tanggal/Waktu : 08-Aug-2021/12:54:16 PM => 
 --> 
    SELECT `k`.*, `s`.`nama_satuan` as `nama_group` 
    FROM `satuan` `k` 
    LEFT     JOIN `satuan` `s` ON `k`.`parent` = `s`.`id` 
    WHERE `k`.`deleted` 
    IS     NULL     OR `k`.`deleted` =0 
    LIMIT 10
 --> Execution Time: 0.0012311935424805, Seconds : 1.2311935424805
admin - Tanggal/Waktu : 08-Aug-2021/12:54:16 PM => 
 --> 
    SELECT COUNT( *)  AS `numrows` 
    FROM `satuan` `k` 
    LEFT     JOIN `satuan` `s` ON `k`.`parent` = `s`.`id` 
    WHERE `k`.`deleted` 
    IS     NULL     OR `k`.`deleted` =0
 --> Execution Time: 0.00070595741271973, Seconds : 0.70595741271973
admin - Tanggal/Waktu : 08-Aug-2021/12:54:16 PM => 
 --> 
    SELECT * 
    FROM `general` 
    LIMIT 1000
 --> Execution Time: 0.00097799301147461, Seconds : 0.97799301147461
admin - Tanggal/Waktu : 08-Aug-2021/12:54:16 PM => 
 --> 
    SELECT i.* 
    FROM invoice i 
    JOIN ( 
    SELECT max( id)  id, invoice 
    FROM invoice_status 
    GROUP     BY invoice)  iss on iss.invoice = i.id 
    JOIN invoice_status isa on isa.id = iss.id 
    WHERE isa.status = 'DRAFT' 
    AND i.deleted = 0 
    ORDER     BY i.id 
    DESC     LIMIT 5 
    OFFSET 0
 --> Execution Time: 0.0010499954223633, Seconds : 1.0499954223633
admin - Tanggal/Waktu : 08-Aug-2021/12:54:16 PM => 
 --> 
    SELECT o.* 
    FROM `order` o 
    JOIN ( 
    SELECT max( id)  id, `order` 
    FROM order_status 
    GROUP     BY `order`)  oss on oss.order = o.id 
    JOIN order_status os on os.id = oss.id 
    WHERE os.status = 'DRAFT' 
    AND o.deleted = 0 
    ORDER     BY o.id 
    DESC     LIMIT 5 
    OFFSET 0
 --> Execution Time: 0.00092315673828125, Seconds : 0.92315673828125
admin - Tanggal/Waktu : 08-Aug-2021/12:54:16 PM => 
 --> 
    SELECT ro.* 
    FROM retur_order ro 
    JOIN `order` o on o.id = ro.id 
    JOIN ( 
    SELECT max( id)  id, `order` 
    FROM order_status 
    GROUP     BY `order`)  oss on oss.order = o.id 
    JOIN order_status os on os.id = oss.id 
    WHERE ro.deleted = 0 
    AND os.status = 'DRAFT' 
    AND ro.deleted = 0 
    ORDER     BY ro.id 
    DESC     LIMIT 5 
    OFFSET 0
 --> Execution Time: 0.00073814392089844, Seconds : 0.73814392089844
