
----------../modules/database/controllers/login/index----------
 - Tanggal/Waktu : 17-Aug-2021/07:45:39 AM => 
 --> 
    SELECT * 
    FROM `general` 
    LIMIT 1000
 --> Execution Time: 0.015389919281006, Seconds : 15.389919281006

----------../modules/database/controllers/login/index----------
 - Tanggal/Waktu : 17-Aug-2021/07:45:39 AM => 
 --> 
    SELECT * 
    FROM `general` 
    LIMIT 1000
 --> Execution Time: 0.00045490264892578, Seconds : 0.45490264892578
