
----------../modules/template/controllers/produk/ubah----------
admin - Tanggal/Waktu : 11-Nov-2021/16:09:53 PM => 
 --> 
    SELECT `r`.*, `kr`.`kategori` as `product_kategori`, `tr`.`tipe` 
    FROM `product` `r` 
    JOIN `kategori_product` `kr` ON `r`.`kategori_product` = `kr`.`id` 
    JOIN `tipe_product` `tr` ON `r`.`tipe_product` = `tr`.`id` 
    WHERE `r`.`id` = '1677' 
    LIMIT 1000
 --> Execution Time: 0.00083494186401367, Seconds : 0.83494186401367
admin - Tanggal/Waktu : 11-Nov-2021/16:09:53 PM => 
 --> 
    SELECT * 
    FROM `tipe_product` 
    WHERE `deleted` 
    IS     NULL     OR `deleted` =0 
    LIMIT 1000
 --> Execution Time: 0.00044393539428711, Seconds : 0.44393539428711
admin - Tanggal/Waktu : 11-Nov-2021/16:09:53 PM => 
 --> 
    SELECT * 
    FROM `kategori_product` 
    WHERE `deleted` 
    IS     NULL     OR `deleted` =0 
    LIMIT 1000
 --> Execution Time: 0.00030398368835449, Seconds : 0.30398368835449
admin - Tanggal/Waktu : 11-Nov-2021/16:09:53 PM => 
 --> 
    SELECT * 
    FROM `product_has_foto` 
    WHERE `product` = '1677' 
    AND `status` 
    IS     NULL     LIMIT 1000
 --> Execution Time: 0.00044393539428711, Seconds : 0.44393539428711
admin - Tanggal/Waktu : 11-Nov-2021/16:09:53 PM => 
 --> 
    SELECT * 
    FROM `general` 
    LIMIT 1000
 --> Execution Time: 0.0003969669342041, Seconds : 0.3969669342041
admin - Tanggal/Waktu : 11-Nov-2021/16:09:53 PM => 
 --> 
    SELECT i.* 
    FROM invoice i 
    JOIN ( 
    SELECT max( id)  id, invoice 
    FROM invoice_status 
    GROUP     BY invoice)  iss on iss.invoice = i.id 
    JOIN invoice_status isa on isa.id = iss.id 
    WHERE isa.status = 'DRAFT' 
    AND i.deleted = 0 
    ORDER     BY i.id 
    DESC     LIMIT 5 
    OFFSET 0
 --> Execution Time: 0.00078606605529785, Seconds : 0.78606605529785
admin - Tanggal/Waktu : 11-Nov-2021/16:09:53 PM => 
 --> 
    SELECT o.* 
    FROM `order` o 
    JOIN ( 
    SELECT max( id)  id, `order` 
    FROM order_status 
    GROUP     BY `order`)  oss on oss.order = o.id 
    JOIN order_status os on os.id = oss.id 
    WHERE os.status = 'DRAFT' 
    AND o.deleted = 0 
    ORDER     BY o.id 
    DESC     LIMIT 5 
    OFFSET 0
 --> Execution Time: 0.00069189071655273, Seconds : 0.69189071655273
admin - Tanggal/Waktu : 11-Nov-2021/16:09:53 PM => 
 --> 
    SELECT ro.* 
    FROM retur_order ro 
    JOIN `order` o on o.id = ro.id 
    JOIN ( 
    SELECT max( id)  id, `order` 
    FROM order_status 
    GROUP     BY `order`)  oss on oss.order = o.id 
    JOIN order_status os on os.id = oss.id 
    WHERE ro.deleted = 0 
    AND os.status = 'DRAFT' 
    AND ro.deleted = 0 
    ORDER     BY ro.id 
    DESC     LIMIT 5 
    OFFSET 0
 --> Execution Time: 0.00052189826965332, Seconds : 0.52189826965332
