
----------../modules/order/controllers/order/chooseProduk----------
administrator - Tanggal/Waktu : 01-Aug-2021/10:28:36 AM => 
 --> 
    SELECT ps.* , s.nama_satuan , ps.qty as konversi , ps.ket_harga as keterangan 
    FROM product_satuan ps 
    JOIN satuan s on s.id = ps.satuan 
    WHERE ps.product = 3159
 --> Execution Time: 0.00064611434936523, Seconds : 0.64611434936523
