
----------../modules/order/controllers/order/chooseProduk----------
admin - Tanggal/Waktu : 07-Oct-2021/19:08:57 PM => 
 --> 
    SELECT ps.* , s.nama_satuan , ps.qty as konversi , ps.ket_harga as keterangan 
    FROM product_satuan ps 
    JOIN satuan s on s.id = ps.satuan 
    WHERE ps.product = 1677 
    AND ps.deleted = 0
 --> Execution Time: 0.0012249946594238, Seconds : 1.2249946594238
admin - Tanggal/Waktu : 07-Oct-2021/19:08:57 PM => 
 --> 
    SELECT ps.* , s.nama_satuan , ps.qty as konversi , ps.ket_harga as keterangan 
    FROM product_satuan ps 
    JOIN satuan s on s.id = ps.satuan 
    WHERE ps.product = 1677 
    AND ps.deleted = 0 
    AND ps.satuan_terkecil = 1
 --> Execution Time: 0.0011141300201416, Seconds : 1.1141300201416
