
----------../modules/template/controllers/pengadaan/index----------
administrator - Tanggal/Waktu : 01-Aug-2021/09:19:18 AM => 
 --> 
    SELECT `p`.*, `v`.`nama_vendor` 
    FROM `procurement` `p` 
    JOIN `vendor` `v` ON `v`.`id` = `p`.`vendor` 
    WHERE `p`.`deleted` 
    IS     NULL     OR `p`.`deleted` =0 
    LIMIT 10
 --> Execution Time: 0.0015208721160889, Seconds : 1.5208721160889
administrator - Tanggal/Waktu : 01-Aug-2021/09:19:18 AM => 
 --> 
    SELECT COUNT( *)  AS `numrows` 
    FROM `procurement` `p` 
    JOIN `vendor` `v` ON `v`.`id` = `p`.`vendor` 
    WHERE `p`.`deleted` 
    IS     NULL     OR `p`.`deleted` =0
 --> Execution Time: 0.00052404403686523, Seconds : 0.52404403686523
administrator - Tanggal/Waktu : 01-Aug-2021/09:19:18 AM => 
 --> 
    SELECT * 
    FROM `general` 
    LIMIT 1000
 --> Execution Time: 0.00046181678771973, Seconds : 0.46181678771973
administrator - Tanggal/Waktu : 01-Aug-2021/09:19:18 AM => 
 --> 
    SELECT i.* 
    FROM invoice i 
    JOIN ( 
    SELECT max( id)  id, invoice 
    FROM invoice_status 
    GROUP     BY invoice)  iss on iss.invoice = i.id 
    JOIN invoice_status isa on isa.id = iss.id 
    WHERE isa.status = 'DRAFT' 
    AND i.deleted = 0 
    ORDER     BY i.id 
    DESC     LIMIT 5 
    OFFSET 0
 --> Execution Time: 0.00084710121154785, Seconds : 0.84710121154785
administrator - Tanggal/Waktu : 01-Aug-2021/09:19:18 AM => 
 --> 
    SELECT o.* 
    FROM `order` o 
    JOIN ( 
    SELECT max( id)  id, `order` 
    FROM order_status 
    GROUP     BY `order`)  oss on oss.order = o.id 
    JOIN order_status os on os.id = oss.id 
    WHERE os.status = 'DRAFT' 
    AND o.deleted = 0 
    ORDER     BY o.id 
    DESC     LIMIT 5 
    OFFSET 0
 --> Execution Time: 0.0011329650878906, Seconds : 1.1329650878906
administrator - Tanggal/Waktu : 01-Aug-2021/09:19:18 AM => 
 --> 
    SELECT ro.* 
    FROM retur_order ro 
    JOIN `order` o on o.id = ro.id 
    JOIN ( 
    SELECT max( id)  id, `order` 
    FROM order_status 
    GROUP     BY `order`)  oss on oss.order = o.id 
    JOIN order_status os on os.id = oss.id 
    WHERE ro.deleted = 0 
    AND os.status = 'DRAFT' 
    AND ro.deleted = 0 
    ORDER     BY ro.id 
    DESC     LIMIT 5 
    OFFSET 0
 --> Execution Time: 0.00064802169799805, Seconds : 0.64802169799805
