
----------../modules/database/controllers/login/index----------
 - Tanggal/Waktu : 06-Aug-2021/10:09:14 AM => 
 --> 
    SELECT * 
    FROM `general` 
    LIMIT 1000
 --> Execution Time: 0.00064682960510254, Seconds : 0.64682960510254
