
----------../modules/template/controllers/general/index----------
admin - Tanggal/Waktu : 06-Aug-2021/10:15:14 AM => 
 --> 
    SELECT `i`.* 
    FROM `general` `i` 
    WHERE `i`.`deleted` 
    IS     NULL     OR `i`.`deleted` =0 
    LIMIT 10
 --> Execution Time: 0.00067687034606934, Seconds : 0.67687034606934
admin - Tanggal/Waktu : 06-Aug-2021/10:15:14 AM => 
 --> 
    SELECT COUNT( *)  AS `numrows` 
    FROM `general` `i` 
    WHERE `i`.`deleted` 
    IS     NULL     OR `i`.`deleted` =0
 --> Execution Time: 0.0003969669342041, Seconds : 0.3969669342041
admin - Tanggal/Waktu : 06-Aug-2021/10:15:14 AM => 
 --> 
    SELECT * 
    FROM `general` 
    LIMIT 1000
 --> Execution Time: 0.00043487548828125, Seconds : 0.43487548828125
admin - Tanggal/Waktu : 06-Aug-2021/10:15:14 AM => 
 --> 
    SELECT i.* 
    FROM invoice i 
    JOIN ( 
    SELECT max( id)  id, invoice 
    FROM invoice_status 
    GROUP     BY invoice)  iss on iss.invoice = i.id 
    JOIN invoice_status isa on isa.id = iss.id 
    WHERE isa.status = 'DRAFT' 
    AND i.deleted = 0 
    ORDER     BY i.id 
    DESC     LIMIT 5 
    OFFSET 0
 --> Execution Time: 0.0011370182037354, Seconds : 1.1370182037354
admin - Tanggal/Waktu : 06-Aug-2021/10:15:14 AM => 
 --> 
    SELECT o.* 
    FROM `order` o 
    JOIN ( 
    SELECT max( id)  id, `order` 
    FROM order_status 
    GROUP     BY `order`)  oss on oss.order = o.id 
    JOIN order_status os on os.id = oss.id 
    WHERE os.status = 'DRAFT' 
    AND o.deleted = 0 
    ORDER     BY o.id 
    DESC     LIMIT 5 
    OFFSET 0
 --> Execution Time: 0.00092792510986328, Seconds : 0.92792510986328
admin - Tanggal/Waktu : 06-Aug-2021/10:15:14 AM => 
 --> 
    SELECT ro.* 
    FROM retur_order ro 
    JOIN `order` o on o.id = ro.id 
    JOIN ( 
    SELECT max( id)  id, `order` 
    FROM order_status 
    GROUP     BY `order`)  oss on oss.order = o.id 
    JOIN order_status os on os.id = oss.id 
    WHERE ro.deleted = 0 
    AND os.status = 'DRAFT' 
    AND ro.deleted = 0 
    ORDER     BY ro.id 
    DESC     LIMIT 5 
    OFFSET 0
 --> Execution Time: 0.0008549690246582, Seconds : 0.8549690246582
