
----------../modules/database/controllers/unit/simpan----------
administrator - Tanggal/Waktu : 07-Aug-2021/08:30:26 AM => 
 --> 
    INSERT     INTO `satuan` ( `nama_satuan`, `createddate`, `createdby`)  
    VALUES ( 'KG', '2021-08-07 08:30:26', '1') 
 --> Execution Time: 0.0010330677032471, Seconds : 1.0330677032471

----------../modules/template/controllers/unit/detail----------
administrator - Tanggal/Waktu : 07-Aug-2021/08:30:26 AM => 
 --> 
    SELECT `kr`.*, `s`.`nama_satuan` as `nama_group` 
    FROM `satuan` `kr` 
    LEFT     JOIN `satuan` `s` ON `kr`.`parent` = `s`.`id` 
    WHERE `kr`.`id` = '956' 
    LIMIT 1000
 --> Execution Time: 0.0021109580993652, Seconds : 2.1109580993652
administrator - Tanggal/Waktu : 07-Aug-2021/08:30:26 AM => 
 --> 
    SELECT * 
    FROM `general` 
    LIMIT 1000
 --> Execution Time: 0.0041589736938477, Seconds : 4.1589736938477
administrator - Tanggal/Waktu : 07-Aug-2021/08:30:26 AM => 
 --> 
    SELECT i.* 
    FROM invoice i 
    JOIN ( 
    SELECT max( id)  id, invoice 
    FROM invoice_status 
    GROUP     BY invoice)  iss on iss.invoice = i.id 
    JOIN invoice_status isa on isa.id = iss.id 
    WHERE isa.status = 'DRAFT' 
    AND i.deleted = 0 
    ORDER     BY i.id 
    DESC     LIMIT 5 
    OFFSET 0
 --> Execution Time: 0.00160813331604, Seconds : 1.60813331604
administrator - Tanggal/Waktu : 07-Aug-2021/08:30:26 AM => 
 --> 
    SELECT o.* 
    FROM `order` o 
    JOIN ( 
    SELECT max( id)  id, `order` 
    FROM order_status 
    GROUP     BY `order`)  oss on oss.order = o.id 
    JOIN order_status os on os.id = oss.id 
    WHERE os.status = 'DRAFT' 
    AND o.deleted = 0 
    ORDER     BY o.id 
    DESC     LIMIT 5 
    OFFSET 0
 --> Execution Time: 0.0017609596252441, Seconds : 1.7609596252441
administrator - Tanggal/Waktu : 07-Aug-2021/08:30:26 AM => 
 --> 
    SELECT ro.* 
    FROM retur_order ro 
    JOIN `order` o on o.id = ro.id 
    JOIN ( 
    SELECT max( id)  id, `order` 
    FROM order_status 
    GROUP     BY `order`)  oss on oss.order = o.id 
    JOIN order_status os on os.id = oss.id 
    WHERE ro.deleted = 0 
    AND os.status = 'DRAFT' 
    AND ro.deleted = 0 
    ORDER     BY ro.id 
    DESC     LIMIT 5 
    OFFSET 0
 --> Execution Time: 0.00087881088256836, Seconds : 0.87881088256836
