
----------../modules/template/controllers/order/add----------
administrator - Tanggal/Waktu : 01-Aug-2021/10:28:31 AM => 
 --> 
    SELECT `ps`.*, `p`.`product` as `nama_product`, `s`.`nama_satuan`, `pst`.`stock`, `p`.`kode_product` 
    FROM `product_satuan` `ps` 
    JOIN `product` `p` ON `ps`.`product` = `p`.`id` 
    LEFT     JOIN `satuan` `s` ON `ps`.`satuan` = `s`.`id` 
    JOIN `product_stock` `pst` ON `p`.`id` = `pst`.`product` 
    WHERE `ps`.`deleted` =0 
    OR `ps`.`deleted` 
    IS     NULL     LIMIT 1000
 --> Execution Time: 0.0010769367218018, Seconds : 1.0769367218018
administrator - Tanggal/Waktu : 01-Aug-2021/10:28:31 AM => 
 --> 
    SELECT `p`.* 
    FROM `pembeli` `p` 
    WHERE `p`.`deleted` =0 
    OR `p`.`deleted` 
    IS     NULL     AND `p`.`pembeli_kategori` = 2 
    LIMIT 1000
 --> Execution Time: 0.00061702728271484, Seconds : 0.61702728271484
administrator - Tanggal/Waktu : 01-Aug-2021/10:28:31 AM => 
 --> 
    SELECT * 
    FROM `metode_bayar` 
    LIMIT 1000
 --> Execution Time: 0.00039386749267578, Seconds : 0.39386749267578
administrator - Tanggal/Waktu : 01-Aug-2021/10:28:31 AM => 
 --> 
    SELECT `p`.* 
    FROM `pajak` `p` 
    WHERE `p`.`deleted` =0 
    OR `p`.`deleted` 
    IS     NULL     LIMIT 1000
 --> Execution Time: 0.00057387351989746, Seconds : 0.57387351989746
administrator - Tanggal/Waktu : 01-Aug-2021/10:28:31 AM => 
 --> 
    SELECT * 
    FROM `potongan` 
    ORDER     BY `id` 
    DESC     LIMIT 1000
 --> Execution Time: 0.0004119873046875, Seconds : 0.4119873046875
administrator - Tanggal/Waktu : 01-Aug-2021/10:28:31 AM => 
 --> 
    SELECT p.* , ps.stock 
    FROM product p 
    LEFT     JOIN ( 
    SELECT max( id)  id, product 
    FROM product_stock 
    GROUP     BY product)  ps_max on ps_max.product = p.id 
    LEFT     JOIN product_stock ps on ps.id = ps_max.id 
    LEFT     JOIN product_satuan pst on ps.product_satuan = pst.id 
    LEFT     JOIN satuan s on s.id = pst.satuan 
    WHERE p.deleted = 0 
    AND s.nama_satuan = 'PCS'
 --> Execution Time: 0.0010180473327637, Seconds : 1.0180473327637
administrator - Tanggal/Waktu : 01-Aug-2021/10:28:31 AM => 
 --> 
    SELECT * 
    FROM `general` 
    LIMIT 1000
 --> Execution Time: 0.00045609474182129, Seconds : 0.45609474182129
administrator - Tanggal/Waktu : 01-Aug-2021/10:28:31 AM => 
 --> 
    SELECT i.* 
    FROM invoice i 
    JOIN ( 
    SELECT max( id)  id, invoice 
    FROM invoice_status 
    GROUP     BY invoice)  iss on iss.invoice = i.id 
    JOIN invoice_status isa on isa.id = iss.id 
    WHERE isa.status = 'DRAFT' 
    AND i.deleted = 0 
    ORDER     BY i.id 
    DESC     LIMIT 5 
    OFFSET 0
 --> Execution Time: 0.00098299980163574, Seconds : 0.98299980163574
administrator - Tanggal/Waktu : 01-Aug-2021/10:28:31 AM => 
 --> 
    SELECT o.* 
    FROM `order` o 
    JOIN ( 
    SELECT max( id)  id, `order` 
    FROM order_status 
    GROUP     BY `order`)  oss on oss.order = o.id 
    JOIN order_status os on os.id = oss.id 
    WHERE os.status = 'DRAFT' 
    AND o.deleted = 0 
    ORDER     BY o.id 
    DESC     LIMIT 5 
    OFFSET 0
 --> Execution Time: 0.0013480186462402, Seconds : 1.3480186462402
administrator - Tanggal/Waktu : 01-Aug-2021/10:28:31 AM => 
 --> 
    SELECT ro.* 
    FROM retur_order ro 
    JOIN `order` o on o.id = ro.id 
    JOIN ( 
    SELECT max( id)  id, `order` 
    FROM order_status 
    GROUP     BY `order`)  oss on oss.order = o.id 
    JOIN order_status os on os.id = oss.id 
    WHERE ro.deleted = 0 
    AND os.status = 'DRAFT' 
    AND ro.deleted = 0 
    ORDER     BY ro.id 
    DESC     LIMIT 5 
    OFFSET 0
 --> Execution Time: 0.00081801414489746, Seconds : 0.81801414489746
