
----------../modules/database/controllers/login/index----------
 - Tanggal/Waktu : 19-Aug-2021/12:11:23 PM => 
 --> 
    SELECT * 
    FROM `general` 
    LIMIT 1000
 --> Execution Time: 0.00041508674621582, Seconds : 0.41508674621582
