
----------../modules/template/controllers/produk/ubah----------
admin - Tanggal/Waktu : 11-Nov-2021/16:55:31 PM => 
 --> 
    SELECT `r`.*, `kr`.`kategori` as `product_kategori`, `tr`.`tipe` 
    FROM `product` `r` 
    JOIN `kategori_product` `kr` ON `r`.`kategori_product` = `kr`.`id` 
    JOIN `tipe_product` `tr` ON `r`.`tipe_product` = `tr`.`id` 
    WHERE `r`.`id` = '1677' 
    LIMIT 1000
 --> Execution Time: 0.0010888576507568, Seconds : 1.0888576507568
admin - Tanggal/Waktu : 11-Nov-2021/16:55:31 PM => 
 --> 
    SELECT * 
    FROM `tipe_product` 
    WHERE `deleted` 
    IS     NULL     OR `deleted` =0 
    LIMIT 1000
 --> Execution Time: 0.0016710758209229, Seconds : 1.6710758209229
admin - Tanggal/Waktu : 11-Nov-2021/16:55:31 PM => 
 --> 
    SELECT * 
    FROM `kategori_product` 
    WHERE `deleted` 
    IS     NULL     OR `deleted` =0 
    LIMIT 1000
 --> Execution Time: 0.0007481575012207, Seconds : 0.7481575012207
admin - Tanggal/Waktu : 11-Nov-2021/16:55:31 PM => 
 --> 
    SELECT * 
    FROM `product_has_foto` 
    WHERE `product` = '1677' 
    AND `status` 
    IS     NULL     LIMIT 1000
 --> Execution Time: 0.0013229846954346, Seconds : 1.3229846954346
admin - Tanggal/Waktu : 11-Nov-2021/16:55:31 PM => 
 --> 
    SELECT ps.* , s.nama_satuan 
    FROM product_satuan ps 
    JOIN product p on p.id = ps.product 
    JOIN satuan s on s.id = ps.satuan 
    WHERE ps.deleted = 0 
    AND p.id = 1677
 --> Execution Time: 0.00090503692626953, Seconds : 0.90503692626953
admin - Tanggal/Waktu : 11-Nov-2021/16:55:31 PM => 
 --> 
    SELECT * 
    FROM satuan s 
    WHERE deleted = 0
 --> Execution Time: 0.00039887428283691, Seconds : 0.39887428283691
admin - Tanggal/Waktu : 11-Nov-2021/16:55:31 PM => 
 --> 
    SELECT * 
    FROM `general` 
    LIMIT 1000
 --> Execution Time: 0.00075984001159668, Seconds : 0.75984001159668
admin - Tanggal/Waktu : 11-Nov-2021/16:55:31 PM => 
 --> 
    SELECT i.* 
    FROM invoice i 
    JOIN ( 
    SELECT max( id)  id, invoice 
    FROM invoice_status 
    GROUP     BY invoice)  iss on iss.invoice = i.id 
    JOIN invoice_status isa on isa.id = iss.id 
    WHERE isa.status = 'DRAFT' 
    AND i.deleted = 0 
    ORDER     BY i.id 
    DESC     LIMIT 5 
    OFFSET 0
 --> Execution Time: 0.0015189647674561, Seconds : 1.5189647674561
admin - Tanggal/Waktu : 11-Nov-2021/16:55:31 PM => 
 --> 
    SELECT o.* 
    FROM `order` o 
    JOIN ( 
    SELECT max( id)  id, `order` 
    FROM order_status 
    GROUP     BY `order`)  oss on oss.order = o.id 
    JOIN order_status os on os.id = oss.id 
    WHERE os.status = 'DRAFT' 
    AND o.deleted = 0 
    ORDER     BY o.id 
    DESC     LIMIT 5 
    OFFSET 0
 --> Execution Time: 0.0014729499816895, Seconds : 1.4729499816895
admin - Tanggal/Waktu : 11-Nov-2021/16:55:31 PM => 
 --> 
    SELECT ro.* 
    FROM retur_order ro 
    JOIN `order` o on o.id = ro.id 
    JOIN ( 
    SELECT max( id)  id, `order` 
    FROM order_status 
    GROUP     BY `order`)  oss on oss.order = o.id 
    JOIN order_status os on os.id = oss.id 
    WHERE ro.deleted = 0 
    AND os.status = 'DRAFT' 
    AND ro.deleted = 0 
    ORDER     BY ro.id 
    DESC     LIMIT 5 
    OFFSET 0
 --> Execution Time: 0.0011091232299805, Seconds : 1.1091232299805
