
----------../modules/template/controllers/produk/ubah----------
admin - Tanggal/Waktu : 11-Nov-2021/16:35:12 PM => 
 --> 
    SELECT `r`.*, `kr`.`kategori` as `product_kategori`, `tr`.`tipe` 
    FROM `product` `r` 
    JOIN `kategori_product` `kr` ON `r`.`kategori_product` = `kr`.`id` 
    JOIN `tipe_product` `tr` ON `r`.`tipe_product` = `tr`.`id` 
    WHERE `r`.`id` = '1677' 
    LIMIT 1000
 --> Execution Time: 0.0011200904846191, Seconds : 1.1200904846191
admin - Tanggal/Waktu : 11-Nov-2021/16:35:12 PM => 
 --> 
    SELECT * 
    FROM `tipe_product` 
    WHERE `deleted` 
    IS     NULL     OR `deleted` =0 
    LIMIT 1000
 --> Execution Time: 0.00044083595275879, Seconds : 0.44083595275879
admin - Tanggal/Waktu : 11-Nov-2021/16:35:12 PM => 
 --> 
    SELECT * 
    FROM `kategori_product` 
    WHERE `deleted` 
    IS     NULL     OR `deleted` =0 
    LIMIT 1000
 --> Execution Time: 0.00074386596679688, Seconds : 0.74386596679688
admin - Tanggal/Waktu : 11-Nov-2021/16:35:12 PM => 
 --> 
    SELECT * 
    FROM `product_has_foto` 
    WHERE `product` = '1677' 
    AND `status` 
    IS     NULL     LIMIT 1000
 --> Execution Time: 0.00043511390686035, Seconds : 0.43511390686035
admin - Tanggal/Waktu : 11-Nov-2021/16:35:12 PM => 
 --> 
    SELECT * 
    FROM `general` 
    LIMIT 1000
 --> Execution Time: 0.0005190372467041, Seconds : 0.5190372467041
admin - Tanggal/Waktu : 11-Nov-2021/16:35:12 PM => 
 --> 
    SELECT i.* 
    FROM invoice i 
    JOIN ( 
    SELECT max( id)  id, invoice 
    FROM invoice_status 
    GROUP     BY invoice)  iss on iss.invoice = i.id 
    JOIN invoice_status isa on isa.id = iss.id 
    WHERE isa.status = 'DRAFT' 
    AND i.deleted = 0 
    ORDER     BY i.id 
    DESC     LIMIT 5 
    OFFSET 0
 --> Execution Time: 0.0010452270507812, Seconds : 1.0452270507812
admin - Tanggal/Waktu : 11-Nov-2021/16:35:12 PM => 
 --> 
    SELECT o.* 
    FROM `order` o 
    JOIN ( 
    SELECT max( id)  id, `order` 
    FROM order_status 
    GROUP     BY `order`)  oss on oss.order = o.id 
    JOIN order_status os on os.id = oss.id 
    WHERE os.status = 'DRAFT' 
    AND o.deleted = 0 
    ORDER     BY o.id 
    DESC     LIMIT 5 
    OFFSET 0
 --> Execution Time: 0.0015318393707275, Seconds : 1.5318393707275
admin - Tanggal/Waktu : 11-Nov-2021/16:35:12 PM => 
 --> 
    SELECT ro.* 
    FROM retur_order ro 
    JOIN `order` o on o.id = ro.id 
    JOIN ( 
    SELECT max( id)  id, `order` 
    FROM order_status 
    GROUP     BY `order`)  oss on oss.order = o.id 
    JOIN order_status os on os.id = oss.id 
    WHERE ro.deleted = 0 
    AND os.status = 'DRAFT' 
    AND ro.deleted = 0 
    ORDER     BY ro.id 
    DESC     LIMIT 5 
    OFFSET 0
 --> Execution Time: 0.00070691108703613, Seconds : 0.70691108703613
